﻿Ergebnisse "Westdeutsche Meisterschaft" im Bankdrücken, 14. November 2009 / Bielefeld
Klasse                                                                                  Platzierung   Name                  Ort              Körpergew.   1. Versuch   2. Versuch   3. Versuch  Gesamtpkt.
Männer
Junioren
bis 23 Jahre
Leichtgewicht -75kg                                                                     1. Platz      Ömer Acar             Hildesheim       72,5 kg      105,0 kg     115,0 kg     120,0 kg                 47,50
                                                                                        2. Platz      Martin Löwen          Bielefeld        69,0 kg      65,0 kg      75,0 kg      75,0 kg                  6,00
Mittelgewicht -95kg                                                                     1. Platz      Julian Rose           Heide            80,8 kg      145,0 kg     145,0 kg     152,5 kg                 71,70
                                                                                        2. Platz      Antony Leber          Bielefeld        85,5 kg      95,0 kg      105,0 kg     110,0 kg                 19,50
Schwergewicht -115kg                                                                    1. Platz      Sebastian Nübel       Soest            102,0 kg     160,0 kg     170,0 kg     175,0 kg                 73,00
Aktive bis 39 Jahre
Leichtgewicht -75kg                                                                     1. Platz      Domenico Farvara      Wuppertal        69,1 kg      117,5 kg     120,0 kg     125,0 kg                 50,90
                                                                                        2. Platz      Heiko Birkemeyer      Bielefeld        73,5 kg      120,0 kg     125,0 kg     125,0 kg                 46,50
Mittelgewicht -95kg                                                                     1. Platz      Günther Koll          Westerholt       90,0 kg      190,0 kg     200,0 kg     205,0 kg                 110,00
                                                                                        2. Platz      Marko Balck           Hamburg          84,8 kg      155,0 kg     165,0 kg     172,5 kg                 87,70
                                                                                        3. Platz      Thorsten Maltzen      Bielefeld        94,0 kg      155,0 kg     162,5 kg     162,5 kg                 61,00
                                                                                        4. Platz      Andreas Weisbecker    Soest            89,5 kg      150,0 kg     157,5 kg     157,5 kg                 60,50
                                                                                        5. Platz      Christoph Beuermann   Hann. / Münden   90,0 kg      140,0 kg     150,0 kg     155,0 kg                 60,00
Schwergewicht -115kg                                                                    1. Platz      Ingo Seidel           Leverkusen       103,0 kg     225,0 kg     232,5 kg     232,5 kg                 122,00
                                                                                        2. Platz      Vitali Krenz          Moers            112,0 kg     220,0 kg     230,0 kg     232,5 kg                 120,50 DR
                                                                                        3. Platz      Lars Göhler           Mönchenfrei      111,8 kg     190,0 kg     200,0 kg     200,0 kg                 78,20
                                                                                        4. Platz      Marc Galland          Düsseldorf       111,5 kg     175,0 kg     185,0 kg     192,5 kg                 73,50
                                                                                        5. Platz      Nick Mörsch           Essen            113,0 kg     175,0 kg     185,0 kg     200,0 kg                 72,00
                                                                                        6. Platz      Dirk Thalheim         Mönchenfrei      105,5 kg     150,0 kg     150,0 kg     155,0 kg                 44,50
Superschwergewicht +115kg                                                               1. Platz      Mirko Jentzsch        Bielefeld        116,5 kg     210,0 kg     217,5 kg     217,5 kg                 93,50
Masters I ab 40 Jahre
Mittelgewicht -95kg                                                                     1. Platz      Torsten Jaap          Perleberg        88,5 kg      160,0 kg     167,5 kg     170,0 kg                 81,50
Schwergewicht -115kg                                                                    1. Platz      Frank Leiyng          Nauen            113,5 kg     210,0 kg     220,0 kg     222,5 kg                 106,50 DR
Superschwergewicht +115kg                                                               1. Platz      Sergej Arent          Grevenbroich     127,7 kg     200,0 kg     210,0 kg     222,5 kg                 82,30
                                                                                        2. Platz      Michael Zacharias     Hagen            134,5 kg     190,0 kg     200,0 kg     205,0 kg                 65,50

Masters II ab 50 Jahre
Leichtgewicht -75kg                                    1. Platz       Norbert Rösel   Heide   74,3 kg   120,0 kg   125,0 kg   127,5 kg   53,20 DR
Gesamtsieger / nach Relativpunkten, Reshel - Tabelle
Junioren:                                              Julian Rose
Aktive:                                                Ingo Seidel
Masters:                                               Frank Leiyng
