Division,WeightClassKg,Place,Name,Team,BodyweightKg,Best3SquatKg,Best3BenchKg,Best3DeadliftKg,TotalKg,Equipment,Event,Sex
Boys,51.71,1,Hector Villegas,Roma,51.35,172.37,90.72,179.17,442.25,Single-ply,SBD,M
Boys,51.71,2,Randy Soliz,Hebbronville,51.66,167.83,81.65,170.1,419.57,Single-ply,SBD,M
Boys,51.71,3,Chris Marroquin,Hebbronville,51.66,147.42,88.45,161.03,396.89,Single-ply,SBD,M
Boys,51.71,4,Robert Gonzalez,Laredo Cigarroa,49.99,115.67,72.57,129.27,317.51,Single-ply,SBD,M
Boys,51.71,5,Eric Martinez,Freer,51.71,117.93,61.23,138.35,317.51,Single-ply,SBD,M
Boys,51.71,6,Hector Lozano,Laredo United South,51.44,90.72,65.77,129.27,285.76,Single-ply,SBD,M
Boys,51.71,7,David Lozano,Roma,47.26,108.86,54.43,120.2,283.5,Single-ply,SBD,M
Boys,51.71,8,Nelson Carmona,Laredo Martin,45.63,102.06,56.7,122.47,281.23,Single-ply,SBD,M
Boys,51.71,9,Brennan McGuire,Agua Dulce,51.62,106.59,61.23,,167.83,Single-ply,SB,M
Boys,51.71,DQ,Jeremy Martinez,Robstown,51.71,,,,,Single-ply,SB,M
Boys,59.87,1,Eric Oliva,Laredo United South,55.97,190.51,115.67,190.51,496.68,Single-ply,SBD,M
Boys,59.87,2,Cesar Esquivel,Laredo Cigarroa,55.88,172.37,72.57,181.44,426.38,Single-ply,SBD,M
Boys,55.79,3,Jonathan Loveall,Rockport-Fulton,55.61,115.67,77.11,136.08,328.85,Single-ply,SBD,M
Boys,55.79,4,Leo Barrera,Laredo Nixon,55.34,104.33,58.97,124.74,288.03,Single-ply,SBD,M
Boys,55.79,5,Franco Rullan,Laredo Nixon,54.16,99.79,63.5,117.93,281.23,Single-ply,SBD,M
Boys,55.79,DQ,Raul Ortiz,Zapata,55.79,,,,,Single-ply,SBD,M
Boys,55.79,DQ,Isaac Castillo,Laredo Cigarroa,55.25,,,,,Single-ply,SBD,M
Boys,55.79,DQ,Jesus Trevino,Zapata,55.7,,,,,Single-ply,SBD,M
Boys,59.87,1,Estevan Galvan,Freer,58.33,176.9,108.86,192.78,478.54,Single-ply,SBD,M
Boys,67.13,2,Josh Baez,Falfurrias,60.06,174.63,97.52,176.9,449.06,Single-ply,SBD,M
Boys,67.13,3,Maclovio Gomez,Zapata,59.92,163.29,95.25,179.17,437.72,Single-ply,SBD,M
Boys,67.13,4,Artemio Garcia,Zapata,60.06,142.88,97.52,149.69,390.09,Single-ply,SBD,M
Boys,67.13,5,Abraham Meneses,Laredo Martin,60.1,138.35,81.65,151.95,371.95,Single-ply,SBD,M
Boys,59.87,6,Daniel Tortu,Corpus Christi West Oso,57.88,133.81,81.65,136.08,351.53,Single-ply,SBD,M
Boys,59.87,7,Jonathan Vedia,Bruni,57.52,122.47,74.84,136.08,333.39,Single-ply,SBD,M
Boys,59.87,8,Jorge Arredondo,Hebbronville,58.6,120.2,90.72,117.93,328.85,Single-ply,SBD,M
Boys,59.87,9,Reno Saenz,Hebbronville,58.15,117.93,74.84,129.27,322.05,Single-ply,SBD,M
Boys,59.87,10,Arturo Morales,Corpus Christi West Oso,56.88,90.72,61.23,122.47,274.42,Single-ply,SBD,M
Boys,59.87,DQ,Rene Cabrerra,Laredo Cigarroa,59.87,,,,,Single-ply,SBD,M
Boys,59.87,DQ,Homer Flores,Laredo Nixon,59.87,,,,,Single-ply,SBD,M
Boys,67.13,1,Arnold Bednorz,Freer,63.78,226.8,142.88,204.12,573.79,Single-ply,SBD,M
Boys,67.13,2,Jonathan Pena,Laredo United South,65.68,217.72,129.27,210.92,557.92,Single-ply,SBD,M
Boys,67.13,3,Marcos Casas,Falfurrias,62.69,185.97,113.4,199.58,498.95,Single-ply,SBD,M
Boys,67.13,4,Alonzo Moya,Corpus Christi West Oso,64.41,170.1,86.18,188.24,444.52,Single-ply,SBD,M
Boys,74.84,5,Dimitri Flores,Falfurrias,67.27,170.1,92.99,176.9,439.98,Single-ply,SBD,M
Boys,67.13,6,David Rojas,Ben Bolt-Palito Blanco,64.05,133.81,122.47,174.63,430.91,Single-ply,SBD,M
Boys,67.13,7,Brandon Ngo,Rockport-Fulton,66.04,151.95,95.25,183.7,430.91,Single-ply,SBD,M
Boys,67.13,8,Nathan McRae,Hebbronville,67.13,156.49,88.45,185.97,430.91,Single-ply,SBD,M
Boys,67.13,9,Mark Avila,Hebbronville,66.77,154.22,72.57,183.7,410.5,Single-ply,SBD,M
Boys,67.13,10,Josue Tobias,Laredo Nixon,66.04,140.61,81.65,151.95,374.21,Single-ply,SBD,M
Boys,67.13,11,Manuel Almeida,Laredo Nixon,63.14,136.08,72.57,154.22,362.87,Single-ply,SBD,M
Boys,67.13,12,Zane Sullivan,Riviera Kaufer,60.96,90.72,72.57,129.27,292.57,Single-ply,SBD,M
Boys,67.13,DQ,Hector de la Rosa,Laredo United South,67.13,,,,,Single-ply,SBD,M
Boys,67.13,DQ,Mateo Mendoza,Zapata,67.13,,,,,Single-ply,SBD,M
Boys,67.13,DQ,Gabriel Bautista,Zapata,67.13,,,,,Single-ply,SBD,M
Boys,67.13,DQ,Candelario Segura,Ben Bolt-Palito Blanco,67.13,,,,,Single-ply,SBD,M
Boys,67.13,DQ,AJ Jiminian,Agua Dulce,67.13,,,,,Single-ply,SBD,M
Boys,74.84,DQ,Jesus Gomez,Roma,67.27,,,,,Single-ply,SBD,M
Boys,74.84,1,Aaron Serrato,Freer,71.03,210.92,131.54,238.14,580.6,Single-ply,SBD,M
Boys,74.84,2,Joe Garcia,Odem,72.03,219.99,140.61,210.92,571.53,Single-ply,SBD,M
Boys,74.84,3,Yahir Garcia,Laredo United South,74.66,199.58,115.67,219.99,535.24,Single-ply,SBD,M
Boys,74.84,4,Miguel Alvarez,Zapata,72.67,195.04,122.47,208.65,526.17,Single-ply,SBD,M
Boys,74.84,5,Sergio Garcia,Laredo Nixon,72.76,217.72,111.13,195.04,523.9,Single-ply,SBD,M
Boys,74.84,6,Raymond Huerta,Falfurrias,73.12,192.78,111.13,201.85,505.76,Single-ply,SBD,M
Boys,74.84,7,Louie Lopez,Ben Bolt-Palito Blanco,70.76,188.24,102.06,210.92,501.22,Single-ply,SBD,M
Boys,82.1,8,Rene Ruiz,Hebbronville,74.89,179.17,111.13,197.31,487.61,Single-ply,SBD,M
Boys,74.84,9,Tristen Taylor,Rockport-Fulton,73.03,172.37,106.59,204.12,483.08,Single-ply,SBD,M
Boys,74.84,10,Taylor Nguyen,Rockport-Fulton,73.94,165.56,111.13,197.31,474,Single-ply,SBD,M
Boys,74.84,11,Mark Molina,Laredo Cigarroa,70.85,158.76,88.45,199.58,446.79,Single-ply,SBD,M
Boys,74.84,12,Oscar Olivarez,Robstown,68.67,161.03,108.86,170.1,439.98,Single-ply,SBD,M
Boys,74.84,13,Blake Galvan,Odem,71.49,156.49,97.52,183.7,437.72,Single-ply,SBD,M
Boys,74.84,DQ,Ryan Delossaantos,Robstown,74.84,,,,,Single-ply,SBD,M
Boys,74.84,DQ,David Coates,Corpus Christi West Oso,74.84,,,,,Single-ply,SBD,M
Boys,74.84,DQ,Lucas Mora,Falfurrias,74.84,,,,,Single-ply,SBD,M
Boys,74.84,DQ,Marco DeLuna,Laredo United South,74.75,,,,,Single-ply,SBD,M
Boys,82.1,1,Anthony Garza,Falfurrias,80.1,238.14,133.81,244.94,616.89,Single-ply,SBD,M
Boys,82.1,2,Arnold Sauceda,Hebbronville,79.47,249.48,136.08,226.8,612.35,Single-ply,SBD,M
Boys,82.1,3,Victor Ramos,Laredo United South,81.83,226.8,138.35,244.94,610.08,Single-ply,SBD,M
Boys,82.1,4,Pablo Garcia,Falfurrias,80.65,233.6,124.74,231.33,589.67,Single-ply,SBD,M
Boys,82.1,5,German Uscanga,Robstown,79.02,208.65,133.81,219.99,562.45,Single-ply,SBD,M
Boys,82.1,6,Chris Ortiz,Laredo Nixon,80.1,181.44,117.93,226.8,526.17,Single-ply,SBD,M
Boys,82.1,7,Rene Ramirez,Hebbronville,78.65,181.44,122.47,219.99,523.9,Single-ply,SBD,M
Boys,82.1,8,Jacob Garza,Hebbronville,78.02,217.72,120.2,172.37,510.29,Single-ply,SBD,M
Boys,82.1,9,Adrian Garcia,Roma,81.92,195.04,124.74,183.7,503.49,Single-ply,SBD,M
Boys,82.1,10,Rolando Gutierrez,Corpus Christi West Oso,80.92,181.44,131.54,188.24,501.22,Single-ply,SBD,M
Boys,82.1,11,Resha Durst,Rockport-Fulton,80.38,156.49,113.4,165.56,435.45,Single-ply,SBD,M
Boys,89.81,12,Felipe Ruiz,Freer,82.24,142.88,86.18,154.22,383.29,Single-ply,SBD,M
Boys,82.1,13,Mike Montoya,Riviera Kaufer,79.65,147.42,102.06,131.54,381.02,Single-ply,SBD,M
Boys,82.1,14,Gillie Aguilar,Riviera Kaufer,81.65,113.4,70.31,124.74,308.44,Single-ply,SBD,M
Boys,82.1,DQ,Gilbert Jasso,Robstown,82.1,,,,,Single-ply,SBD,M
Boys,82.1,DQ,RJ Garza,Roma,82.1,,,,,Single-ply,SBD,M
Boys,82.1,DQ,Gustavo Cano,Laredo Martin,82.1,,,,,Single-ply,SBD,M
Boys,82.1,DQ,Derek Cordova,Odem,76.38,129.27,,,,Single-ply,SBD,M
Boys,89.81,1,Andrew Garza,Falfurrias,89.18,251.74,158.76,260.82,671.32,Single-ply,SBD,M
Boys,89.81,2,Jeremy Alaniz,Freer,88.81,240.4,140.61,233.6,614.62,Single-ply,SBD,M
Boys,89.81,3,Noe Gonzalez,Laredo United South,88.36,233.6,136.08,242.67,612.35,Single-ply,SBD,M
Boys,99.79,4,Jonathan Vela,Roma,89.99,213.19,158.76,226.8,598.74,Single-ply,SBD,M
Boys,89.81,5,Jose Anaya,Laredo United South,86,226.8,117.93,231.33,576.06,Single-ply,SBD,M
Boys,89.81,6,Danny Barrera,Hebbronville,84.64,215.46,136.08,208.65,560.19,Single-ply,SBD,M
Boys,89.81,7,Liam McMaham,Bruni,86.36,197.31,120.2,176.9,494.42,Single-ply,SBD,M
Boys,89.81,8,Austin Dale,Hebbronville,84.82,174.63,83.91,181.44,439.98,Single-ply,SBD,M
Boys,89.81,9,Victor Lozano,Laredo Nixon,87.09,158.76,58.97,136.08,353.8,Single-ply,SBD,M
Boys,89.81,DQ,Silvestre Martinez,Laredo Martin,89.81,,,,,Single-ply,SBD,M
Boys,89.81,DQ,Humberto Garcia,Roma,89.81,,,,,Single-ply,SBD,M
Boys,89.81,DQ,Carlos Flores,Riviera Kaufer,89.81,,,,,Single-ply,SBD,M
Boys,89.81,DQ,Marcos Lara,Falfurrias,89.81,,,,,Single-ply,SBD,M
Boys,99.79,DQ,David Oliva,Laredo Martin,89.99,219.99,142.88,,,Single-ply,SBD,M
Boys,99.79,1,Jose Flores #2,Laredo Cigarroa,98.97,263.08,161.03,240.4,664.51,Single-ply,SBD,M
Boys,99.79,2,Zachary Kwiatkowski,Corpus Christi West Oso,98.43,215.46,127.01,224.53,566.99,Single-ply,SBD,M
Boys,99.79,3,Brian Tran,Rockport-Fulton,94.71,190.51,127.01,204.12,521.63,Single-ply,SBD,M
Boys,99.79,4,Ruben Casas,Falfurrias,98.34,204.12,133.81,183.7,521.63,Single-ply,SBD,M
Boys,99.79,5,Zach Hernandez,Ben Bolt-Palito Blanco,91.26,195.04,117.93,181.44,494.42,Single-ply,SBD,M
Boys,99.79,6,Marcos Puga,Zapata,93.8,183.7,97.52,195.04,476.27,Single-ply,SBD,M
Boys,99.79,7,Angel Rodríguez #10,Corpus Christi West Oso,99.52,179.17,117.93,158.76,455.86,Single-ply,SBD,M
Boys,99.79,8,Daniel Vela,Falfurrias,98.88,163.29,106.59,183.7,453.59,Single-ply,SBD,M
Boys,99.79,9,Gabino Barrera,Roma,99.52,181.44,95.25,158.76,435.45,Single-ply,SBD,M
Boys,99.79,10,Jonathan Galvan,Corpus Christi West Oso,94.71,181.44,77.11,172.37,430.91,Single-ply,SBD,M
Boys,99.79,DQ,Mat Garcia,Ben Bolt-Palito Blanco,99.79,,,,,Single-ply,SBD,M
Boys,99.79,DQ,Efren Molina,Laredo Martin,99.79,,,,,Single-ply,SBD,M
Boys,99.79,DQ,Marco Banda,Laredo Nixon,99.79,,,,,Single-ply,SBD,M
Boys,99.79,DQ,Cecilio Garcia,Laredo Nixon,99.79,,,,,Single-ply,SBD,M
Boys,99.79,DQ,Sammy Jasso,Odem,99.79,,,,,Single-ply,SBD,M
Boys,99.79,DQ,Jesus de Jesus,Zapata,99.79,,,,,Single-ply,SBD,M
Boys,99.79,DQ,Marcos Gutierrez,Hebbronville,96.8,,,,,Single-ply,SBD,M
Boys,109.77,1,Silvestre Bustamante,Zapata,109.41,242.67,154.22,199.58,596.47,Single-ply,SBD,M
Boys,109.77,2,Agustin Lara,Laredo United South,103.96,215.46,133.81,226.8,576.06,Single-ply,SBD,M
Boys,109.77,3,Andrew Pena,Robstown,106.68,226.8,142.88,206.38,576.06,Single-ply,SBD,M
Boys,109.77,4,Victor Nenque,Laredo Nixon,108.5,217.72,138.35,192.78,548.85,Single-ply,SBD,M
Boys,109.77,5,Ramon Honorato,Rockport-Fulton,104.24,238.14,113.4,188.24,539.77,Single-ply,SBD,M
Boys,109.77,6,Richard Lichtenberger,Freer,108.32,233.6,113.4,192.78,539.77,Single-ply,SBD,M
Boys,109.77,7,Joe Valderas,Bruni,102.51,195.04,122.47,213.19,530.7,Single-ply,SBD,M
Boys,109.77,8,Robert Vargas,Hebbronville,100.7,197.31,136.08,192.78,526.17,Single-ply,SBD,M
Boys,109.77,9,Trey Felstead,Rockport-Fulton,104.33,176.9,124.74,183.7,485.34,Single-ply,SBD,M
Boys,109.77,10,Eric Chapa,Zapata,103.24,188.24,108.86,183.7,480.81,Single-ply,SBD,M
Boys,109.77,11,Miguel Davila,Falfurrias,100.88,183.7,111.13,174.63,469.47,Single-ply,SBD,M
Boys,109.77,12,Pedro Chavarria,Laredo Cigarroa,107.32,154.22,79.38,158.76,392.36,Single-ply,SBD,M
Boys,109.77,13,Marco Perez,Hebbronville,109.45,129.27,113.4,88.45,331.12,Single-ply,SBD,M
Boys,109.77,DQ,Roman Garcia,Freer,109.77,,,,,Single-ply,SBD,M
Boys,109.77,DQ,Ysauro Gomez,Corpus Christi West Oso,109.77,,,,,Single-ply,SBD,M
Boys,109.77,DQ,Na Cady,Rockport-Fulton,109.77,,,,,Single-ply,SBD,M
Boys,124.74+,1,Carlos Sanchez,Laredo United South,124.92,283.5,136.08,254.01,673.58,Single-ply,SBD,M
Boys,124.74+,2,Ruben Hinojosa,Roma,124.92,265.35,145.15,226.8,637.3,Single-ply,SBD,M
Boys,124.74,3,Ovidio Hernandez,Roma,116.75,240.4,131.54,244.94,616.89,Single-ply,SBD,M
Boys,124.74,4,Hugo Martinez,Zapata,120.84,251.74,115.67,231.33,598.74,Single-ply,SBD,M
Boys,124.74,5,Jesus Zapata,Roma,114.31,231.33,138.35,213.19,582.87,Single-ply,SBD,M
Boys,124.74,6,Jacob Garnand,Rockport-Fulton,122.92,226.8,117.93,231.33,576.06,Single-ply,SBD,M
Boys,124.74,7,Jose Marquez,Hebbronville,110.68,222.26,97.52,174.63,494.42,Single-ply,SBD,M
Boys,124.74,8,Efrain Batres,Laredo Martin,114.21,199.58,97.52,192.78,489.88,Single-ply,SBD,M
Boys,124.74,9,Jose Beltran,Laredo Martin,113.04,195.04,104.33,185.97,485.34,Single-ply,SBD,M
Boys,124.74,10,Zachary Gonzalez,Laredo Nixon,112.22,172.37,81.65,199.58,453.59,Single-ply,SBD,M
Boys,124.74,11,Javier Ceballos,Corpus Christi West Oso,110.86,174.63,102.06,174.63,451.32,Single-ply,SBD,M
Boys,124.74,12,Juan Gonzales,Riviera Kaufer,112.76,163.29,88.45,183.7,435.45,Single-ply,SBD,M
Boys,124.74,DQ,Leo Gonzalez,Robstown,124.74,,,,,Single-ply,SBD,M
Boys,124.74,DQ,Leanthony Cook,Ben Bolt-Palito Blanco,124.74,,,,,Single-ply,SBD,M
Boys,124.74,DQ,Gilbert Hernandez,Laredo Cigarroa,124.74,,,,,Single-ply,SBD,M
Boys,124.74,DQ,Manuel Navarro,Zapata,123.29,251.74,,,,Single-ply,SBD,M
Boys,124.74+,1,Rudy Flores,Laredo United South,139.98,351.53,210.92,297.1,859.56,Single-ply,SBD,M
Boys,124.74+,2,Eduardo Sanchez,Zapata,142.88,276.69,190.51,251.74,718.94,Single-ply,SBD,M
Boys,124.74+,3,Francisco Moreno #1,Zapata,133.08,301.64,140.61,240.4,682.66,Single-ply,SBD,M
Boys,124.74+,4,David Arciniega,Odem,143.06,226.8,138.35,231.33,596.47,Single-ply,SBD,M
Boys,124.74+,5,Michael Esparza,Rockport-Fulton,126.28,233.6,145.15,199.58,578.33,Single-ply,SBD,M
Boys,124.74+,6,Manuel Gonzalez,Ben Bolt-Palito Blanco,132.45,204.12,158.76,188.24,551.11,Single-ply,SBD,M
Boys,124.74+,7,David Salazaar,Freer,133.27,192.78,122.47,204.12,519.36,Single-ply,SBD,M
Boys,124.74+,8,Justin Lopez,Ben Bolt-Palito Blanco,131.09,158.76,95.25,172.37,426.38,Single-ply,SBD,M
Boys,124.74+,9,David Ramirez,Robstown,146.33,145.15,90.72,145.15,381.02,Single-ply,SBD,M
Boys,124.74+,DQ,Justin Lopez,Agua Dulce,125.65,,,,,Single-ply,SBD,M
Boys,,NS,Bryan Flores,Laredo Nixon,,,,,,Single-ply,SBD,M
