Division,WeightClassKg,Place,Name,Team,BodyweightKg,Best3SquatKg,Best3BenchKg,Best3DeadliftKg,TotalKg,Equipment,Event,Sex
Boys,51.71,1,Johnny Adair,Sealy,50.12,154.22,83.91,179.17,417.3,Single-ply,SBD,M
Boys,51.71,2,Joey Adair,Sealy,48.53,142.88,79.38,142.88,365.14,Single-ply,SBD,M
Boys,51.71,3,Trey Fuller,Jarrell,49.9,145.15,72.57,145.15,362.87,Single-ply,SBD,M
Boys,55.79,4,Jesse Jarmillo,Smithville,51.94,129.27,72.57,140.61,342.46,Single-ply,SBD,M
Boys,51.71,5,JoeRey Gonzales,Austin Bowie,51.48,113.4,70.31,113.4,297.1,Single-ply,SBD,M
Boys,51.71,6,Jason Samaniego,Altair Rice,50.8,97.52,52.16,113.4,263.08,Single-ply,SBD,M
Boys,51.71,7,Calvin Creamer,Jarrell,45.36,54.43,31.75,81.65,167.83,Single-ply,SBD,M
Boys,59.87,1,Vinnie Maldanado,Smithville,56.02,131.54,90.72,170.1,392.36,Single-ply,SBD,M
Boys,59.87,2,Jordan Glueck,Columbus,56.02,142.88,74.84,158.76,376.48,Single-ply,SBD,M
Boys,55.79,3,Michael Latapie,Palacios,53.98,133.81,102.06,138.35,374.21,Single-ply,SBD,M
Boys,55.79,4,Tyler Houghton,Caldwell,54.88,124.74,70.31,111.13,306.17,Single-ply,SBD,M
Boys,55.79,5,Luis Grijalva,Wallis Brazos,53.98,106.59,52.16,122.47,281.23,Single-ply,SBD,M
Boys,55.79,6,Dillan Drabek,Schulenburg,53.75,106.59,52.16,113.4,272.16,Single-ply,SBD,M
Boys,55.79,7,Rolando Moreno,Weimar,53.98,81.65,65.77,111.13,258.55,Single-ply,SBD,M
Boys,59.87,8,Jordan Pesl,Schulenburg,56.02,95.25,52.16,108.86,256.28,Single-ply,SBD,M
Boys,55.79,9,Marco Zamora,Palacios,53.98,81.65,49.9,115.67,247.21,Single-ply,SBD,M
Boys,55.79,10,Kristoff Jones,Jarrell,55.79,79.38,52.16,92.99,224.53,Single-ply,SBD,M
Boys,59.87,1,Victor Aguilar #1,Caldwell,57.15,199.58,129.27,174.63,503.49,Single-ply,SBD,M
Boys,59.87,2,Brandon Corn,Liberty Hill,59.19,190.51,111.13,185.97,487.61,Single-ply,SBD,M
Boys,59.87,3,Ubaldo Guzman,Weimar,59.65,163.29,106.59,185.97,455.86,Single-ply,SBD,M
Boys,59.87,4,Willie Ihlenfeldt,Caldwell,57.61,142.88,92.99,131.54,367.41,Single-ply,SBD,M
Boys,59.87,5,Garrett Rios,Columbus,57.83,124.74,102.06,140.61,367.41,Single-ply,SBD,M
Boys,59.87,6,Taylor Nobles,Yoakum,59.87,149.69,63.5,149.69,362.87,Single-ply,SBD,M
Boys,59.87,7,Richard Moran,Jarrell,59.65,129.27,70.31,149.69,349.27,Single-ply,SBD,M
Boys,59.87,8,Valentine Vences,Brookshire Royal,59.42,124.74,79.38,142.88,347,Single-ply,SBD,M
Boys,67.13,9,Juan Ramirez,Jarrell,60.1,136.08,74.84,129.27,340.19,Single-ply,SBD,M
Boys,59.87,10,Jared Youts,Smithville,58.51,122.47,92.99,122.47,337.93,Single-ply,SBD,M
Boys,59.87,11,Dontoya Blackshear,Brookshire Royal,59.42,102.06,77.11,131.54,310.71,Single-ply,SBD,M
Boys,59.87,12,Jesus Lara,Columbus,58.97,108.86,74.84,120.2,303.91,Single-ply,SBD,M
Boys,67.13,1,Osiel Avilez,Jarrell,67.13,244.94,147.42,226.8,619.15,Single-ply,SBD,M
Boys,67.13,2,Kaleb Walker,Columbus,67.13,199.58,122.47,197.31,519.36,Single-ply,SBD,M
Boys,67.13,3,Leo Alfaro,Hempstead,65.54,176.9,95.25,215.46,487.61,Single-ply,SBD,M
Boys,67.13,4,Victor Moya,Jarrell,67.13,172.37,122.47,190.51,485.34,Single-ply,SBD,M
Boys,67.13,5,Zach Konieczny,Sealy,66.68,170.1,104.33,183.7,458.13,Single-ply,SBD,M
Boys,67.13,6,Tomas Moreno,Weimar,61.92,165.56,90.72,188.24,444.52,Single-ply,SBD,M
Boys,67.13,7,Jose Jimenez #11,Palacios,64.86,163.29,102.06,174.63,439.98,Single-ply,SBD,M
Boys,67.13,8,Lance Howard,Altair Rice,65.09,170.1,99.79,170.1,439.98,Single-ply,SBD,M
Boys,67.13,9,Blake McCracken,Yoakum,62.6,172.37,72.57,172.37,417.3,Single-ply,SBD,M
Boys,67.13,10,Mareck Garcia,Austin Bowie,63.5,154.22,86.18,167.83,408.23,Single-ply,SBD,M
Boys,67.13,11,Dalton Manning,Schulenburg,67.13,145.15,111.13,147.42,403.7,Single-ply,SBD,M
Boys,67.13,12,Hogen Lauer,Yoakum,62.6,151.95,79.38,151.95,383.29,Single-ply,SBD,M
Boys,67.13,13,Zeke Zamudio,Columbus,65.77,138.35,95.25,145.15,378.75,Single-ply,SBD,M
Boys,67.13,14,Jorge Sanchez,Weimar,60.33,136.08,77.11,163.29,376.48,Single-ply,SBD,M
Boys,67.13,15,Brandon Garza,Milano,61.69,138.35,88.45,147.42,374.21,Single-ply,SBD,M
Boys,67.13,16,Josh Mora,Wallis Brazos,63.5,147.42,74.84,147.42,369.68,Single-ply,SBD,M
Boys,67.13,17,Tanner Nelson,Bastrop,67.13,142.88,72.57,147.42,362.87,Single-ply,SBD,M
Boys,67.13,18,Noah Seaman,Palacios,66.22,133.81,70.31,151.95,356.07,Single-ply,SBD,M
Boys,67.13,19,Ryan Jaster,La Grange,67.13,133.81,74.84,131.54,340.19,Single-ply,SBD,M
Boys,67.13,20,Matt Jimenez,Luling,61.69,102.06,83.91,142.88,328.85,Single-ply,SBD,M
Boys,67.13,21,Skylar Shimek,La Grange,63.5,117.93,77.11,133.81,328.85,Single-ply,SBD,M
Boys,67.13,22,Dillon Davis #2,La Grange,64.41,117.93,63.5,111.13,292.57,Single-ply,SBD,M
Boys,74.84,1,Michael Hernandez,Brookshire Royal,72.57,190.51,124.74,219.99,535.24,Single-ply,SBD,M
Boys,74.84,2,Darius Battles,Hempstead,70.76,197.31,129.27,206.38,532.97,Single-ply,SBD,M
Boys,74.84,3,Jordan Benford,Columbus,72.8,181.44,124.74,199.58,505.76,Single-ply,SBD,M
Boys,74.84,4,Matthew Nguyen,Palacios,71.21,185.97,97.52,195.04,478.54,Single-ply,SBD,M
Boys,74.84,5,Jamy Adams,Altair Rice,70.76,190.51,97.52,176.9,464.93,Single-ply,SBD,M
Boys,74.84,6,Fish Sutterfield,Austin Bowie,74.16,174.63,102.06,181.44,458.13,Single-ply,SBD,M
Boys,74.84,7,Cody Perez,Yoakum,71.44,156.49,104.33,183.7,444.52,Single-ply,SBD,M
Boys,74.84,8,Marcus Reed,Bastrop,68.49,154.22,106.59,176.9,437.72,Single-ply,SBD,M
Boys,74.84,9,Gabe Almeida,Bellville,73.03,170.1,83.91,181.44,435.45,Single-ply,SBD,M
Boys,74.84,10,Tyler Cardenas,Schulenburg,74.16,161.03,108.86,163.29,433.18,Single-ply,SBD,M
Boys,74.84,11,Brendan Lopez,Palacios,70.31,154.22,95.25,181.44,430.91,Single-ply,SBD,M
Boys,82.1,12,Quentin Bradford,Bastrop,75.07,154.22,92.99,181.44,428.64,Single-ply,SBD,M
Boys,82.1,13,Jeramy Mowdy,Smithville,75.07,154.22,95.25,156.49,405.97,Single-ply,SBD,M
Boys,74.84,14,Eric Sanchez,Wallis Brazos,67.81,145.15,81.65,151.95,378.75,Single-ply,SBD,M
Boys,74.84,15,Keith Jaines,Smithville,72.57,142.88,86.18,149.69,378.75,Single-ply,SBD,M
Boys,74.84,16,Aaron Bermudez,Luling,74.62,142.88,92.99,138.35,374.21,Single-ply,SBD,M
Boys,74.84,17,Jorge Munoz,Luling,68.49,136.08,92.99,136.08,365.14,Single-ply,SBD,M
Boys,74.84,18,Stephen Hood,Liberty Hill,73.03,115.67,70.31,124.74,310.71,Single-ply,SBD,M
Boys,74.84,19,David Wetterman,Caldwell,71.21,106.59,79.38,113.4,299.37,Single-ply,SBD,M
Boys,74.84,20,Mark Cruz,Jarrell,68.49,102.06,74.84,106.59,283.5,Single-ply,SBD,M
Boys,74.84,DQ,Marcos Cardenas,Jarrell,71.67,172.37,,,,Single-ply,SBD,M
Boys,74.84,DQ,Dearreon Oliver,La Grange,71.21,138.35,,,,Single-ply,SBD,M
Boys,74.84,DQ,Cesar Sanchez,Luling,73.94,136.08,,,,Single-ply,SBD,M
Boys,82.1,DQ,Ben Martinez,Austin Bowie,75.07,,,,,Single-ply,SBD,M
Boys,74.84,DQ,Aaron Lugo,Austin Bowie,70.76,,,,,Single-ply,SBD,M
Boys,82.1,1,D'Vonte Daniels,La Grange,82.1,235.87,165.56,226.8,628.23,Single-ply,SBD,M
Boys,82.1,2,Alex Trujillo,Hempstead,80.74,204.12,120.2,233.6,557.92,Single-ply,SBD,M
Boys,82.1,3,Jamie Czajkowski,Milano,77.56,204.12,136.08,204.12,544.31,Single-ply,SBD,M
Boys,82.1,4,Greg Sexton,Palacios,79.83,195.04,111.13,222.26,528.44,Single-ply,SBD,M
Boys,82.1,5,Andrew Jemenez,Yoakum,76.2,217.72,108.86,199.58,526.17,Single-ply,SBD,M
Boys,82.1,6,Hunter Matlock,Austin Bowie,79.83,204.12,117.93,183.7,505.76,Single-ply,SBD,M
Boys,82.1,7,Tanner Heffner,Schulenburg,79.38,190.51,120.2,190.51,501.22,Single-ply,SBD,M
Boys,82.1,8,Hunter Curb,Liberty Hill,78.47,192.78,113.4,192.78,498.95,Single-ply,SBD,M
Boys,82.1,9,David Cortes,Jarrell,76.43,174.63,115.67,190.51,480.81,Single-ply,SBD,M
Boys,82.1,10,Andy Trejo,Bellville,79.83,183.7,102.06,195.04,480.81,Single-ply,SBD,M
Boys,82.1,11,Chance Pack,Milano,78.93,188.24,108.86,174.63,471.74,Single-ply,SBD,M
Boys,82.1,12,Brandon Lincoln,Smithville,76.2,181.44,104.33,181.44,467.2,Single-ply,SBD,M
Boys,82.1,13,Aaron Bishop #2,Jarrell,80.29,154.22,131.54,167.83,453.59,Single-ply,SBD,M
Boys,82.1,14,Cedric Bradshaw,La Grange,78.93,167.83,102.06,181.44,451.32,Single-ply,SBD,M
Boys,82.1,15,Jonah Pearson,Liberty Hill,77.11,170.1,104.33,170.1,444.52,Single-ply,SBD,M
Boys,82.1,16,Thomas Aguilar,Wallis Brazos,82.1,163.29,108.86,172.37,444.52,Single-ply,SBD,M
Boys,82.1,17,Rex Kutzer,Yoakum,77.56,156.49,113.4,170.1,439.98,Single-ply,SBD,M
Boys,89.81,18,Andrew Syrinek,Schulenburg,82.33,156.49,111.13,165.56,433.18,Single-ply,SBD,M
Boys,82.1,19,Dillan Schubert,Columbus,79.83,149.69,102.06,172.37,424.11,Single-ply,SBD,M
Boys,82.1,20,Teofilo Lozano,Hempstead,81.42,145.15,113.4,163.29,421.84,Single-ply,SBD,M
Boys,82.1,21,Ty Winkler,Schulenburg,79.38,158.76,92.99,167.83,419.57,Single-ply,SBD,M
Boys,82.1,22,Joseph Morris,Milano,76.2,149.69,83.91,174.63,408.23,Single-ply,SBD,M
Boys,82.1,23,Jt Spurgeon,Liberty Hill,78.24,149.69,97.52,156.49,403.7,Single-ply,SBD,M
Boys,82.1,24,Aj Burks,Luling,77.56,142.88,92.99,149.69,385.55,Single-ply,SBD,M
Boys,82.1,25,Trey Derick Casey,Bellville,79.83,129.27,83.91,142.88,356.07,Single-ply,SBD,M
Boys,82.1,26,Duana Howard,Bastrop,79.83,113.4,77.11,138.35,328.85,Single-ply,SBD,M
Boys,82.1,DQ,Martin Lopez,Brookshire Royal,80.29,,,,,Single-ply,SBD,M
Boys,89.81,DQ,Aaron Werlein,Luling,82.33,170.1,,,,Single-ply,SBD,M
Boys,82.1,DQ,Ernesto Jaime,Jarrell,78.7,190.51,,,,Single-ply,SBD,M
Boys,89.81,1,Jonathan Massey,Caldwell,89.81,240.4,142.88,210.92,594.21,Single-ply,SBD,M
Boys,89.81,2,Derek Watson,La Grange,89.81,219.99,120.2,210.92,551.11,Single-ply,SBD,M
Boys,89.81,3,Kolby Kahlden,Caldwell,88,181.44,115.67,204.12,501.22,Single-ply,SBD,M
Boys,89.81,4,Demarcus Tillman,Altair Rice,86.64,190.51,111.13,195.04,496.68,Single-ply,SBD,M
Boys,89.81,5,Juedon Kebede,Austin Bowie,84.37,192.78,117.93,183.7,494.42,Single-ply,SBD,M
Boys,89.81,6,James Garder,Altair Rice,85.28,183.7,113.4,192.78,489.88,Single-ply,SBD,M
Boys,89.81,7,Brandon Wavra,Columbus,86.64,170.1,124.74,176.9,471.74,Single-ply,SBD,M
Boys,89.81,8,Juan Lopez,Palacios,86.18,154.22,102.06,208.65,464.93,Single-ply,SBD,M
Boys,89.81,9,Sky Sgovio,La Grange,84.37,172.37,113.4,170.1,455.86,Single-ply,SBD,M
Boys,89.81,10,Sean Torres,Altair Rice,87.77,167.83,95.25,181.44,444.52,Single-ply,SBD,M
Boys,89.81,11,David Hubbard,Liberty Hill,87.09,145.15,83.91,181.44,410.5,Single-ply,SBD,M
Boys,89.81,12,Will Smith #2,Liberty Hill,86.18,149.69,95.25,156.49,401.43,Single-ply,SBD,M
Boys,89.81,13,George Villagomez,Sealy,88,154.22,83.91,154.22,392.36,Single-ply,SBD,M
Boys,89.81,14,Evan Cantrell,Schulenburg,83.91,149.69,72.57,151.95,374.21,Single-ply,SBD,M
Boys,89.81,15,Jacob Garbs,Wallis Brazos,83.23,136.08,70.31,136.08,342.46,Single-ply,SBD,M
Boys,89.81,16,Dalton Blankemeyer,Bellville,85.05,113.4,88.45,138.35,340.19,Single-ply,SBD,M
Boys,99.79,DQ,Josh Crawford,Brookshire Royal,90.04,,,,,Single-ply,SBD,M
Boys,89.81,DQ,Ty Kirk,Rockdale,84.82,,95.25,,,Single-ply,SBD,M
Boys,99.79,1,Wayne Lum,Bastrop,97.07,249.48,131.54,233.6,614.62,Single-ply,SBD,M
Boys,99.79,2,Caleb Gardner,Austin Bowie,95.25,226.8,136.08,208.65,571.53,Single-ply,SBD,M
Boys,99.79,3,Abraham Castillo,Altair Rice,91.63,226.8,122.47,199.58,548.85,Single-ply,SBD,M
Boys,99.79,4,Cole Mayo,Brookshire Royal,94.35,201.85,151.95,195.04,548.85,Single-ply,SBD,M
Boys,99.79,5,Damarious Bluntson,Brookshire Royal,92.53,226.8,106.59,197.31,530.7,Single-ply,SBD,M
Boys,99.79,6,Steven Schneider,Rockdale,94.8,204.12,113.4,210.92,528.44,Single-ply,SBD,M
Boys,99.79,7,Bryan Ruiz,Luling,99.79,210.92,120.2,183.7,514.83,Single-ply,SBD,M
Boys,99.79,8,Juan Nunez,Caldwell,97.98,208.65,136.08,167.83,512.56,Single-ply,SBD,M
Boys,99.79,9,Gabe Guillen,Luling,98.88,183.7,136.08,190.51,510.29,Single-ply,SBD,M
Boys,99.79,10,Anthony Montoya,Rockdale,98.88,226.8,113.4,149.69,489.88,Single-ply,SBD,M
Boys,99.79,11,Shawn Dehart,Liberty Hill,96.16,199.58,97.52,188.24,485.34,Single-ply,SBD,M
Boys,99.79,12,Brian Branecky,Bastrop,94.8,199.58,102.06,172.37,474,Single-ply,SBD,M
Boys,99.79,13,Jason Dunning,Schulenburg,92.08,167.83,115.67,188.24,471.74,Single-ply,SBD,M
Boys,99.79,14,Jonathan Lara,Schulenburg,90.72,174.63,113.4,176.9,464.93,Single-ply,SBD,M
Boys,109.77,15,Omar Ordonez,Luling,100.02,183.7,113.4,165.56,462.66,Single-ply,SBD,M
Boys,99.79,16,Ben Hardin,La Grange,95.71,183.7,102.06,174.63,460.4,Single-ply,SBD,M
Boys,99.79,17,Brice Lauer,Yoakum,92.99,170.1,102.06,174.63,446.79,Single-ply,SBD,M
Boys,99.79,18,Kegan Bledsoe,Smithville,96.62,181.44,90.72,154.22,426.38,Single-ply,SBD,M
Boys,99.79,19,Sean Deny,Smithville,99.11,176.9,97.52,149.69,424.11,Single-ply,SBD,M
Boys,99.79,20,Anthony Serio,Altair Rice,97.3,167.83,86.18,149.69,403.7,Single-ply,SBD,M
Boys,99.79,21,Austin Williams,Bellville,90.72,106.59,83.91,124.74,315.25,Single-ply,SBD,M
Boys,99.79,DQ,Nick Cardenas,Austin Bowie,99.34,,,,,Single-ply,SBD,M
Boys,99.79,DQ,Vincent Hernandez,Liberty Hill,96.84,192.78,,,,Single-ply,SBD,M
Boys,109.77,1,Adam Aucoin,Palacios,102.51,276.69,156.49,226.8,659.98,Single-ply,SBD,M
Boys,109.77,2,Scott Richter,Yoakum,109.77,242.67,163.29,213.19,619.15,Single-ply,SBD,M
Boys,109.77,3,Michael Garcia,Palacios,105.69,226.8,138.35,231.33,596.47,Single-ply,SBD,M
Boys,109.77,4,Chris Price,Yoakum,109.32,226.8,142.88,226.8,596.47,Single-ply,SBD,M
Boys,109.77,5,Matt Guerrero,Luling,103.87,213.19,131.54,192.78,537.51,Single-ply,SBD,M
Boys,109.77,6,Orlando Ordonez,Luling,103.42,192.78,136.08,183.7,512.56,Single-ply,SBD,M
Boys,109.77,7,Emanuel Salinas,Bellville,107.95,199.58,129.27,181.44,510.29,Single-ply,SBD,M
Boys,109.77,8,Jared Kaster,Altair Rice,108.41,188.24,113.4,208.65,510.29,Single-ply,SBD,M
Boys,109.77,9,Brice Helmcamp,Smithville,106.14,204.12,117.93,181.44,503.49,Single-ply,SBD,M
Boys,109.77,10,Michael Elston,Milano,100.24,156.49,111.13,181.44,449.06,Single-ply,SBD,M
Boys,109.77,11,Carlos Martinez #20,Schulenburg,104.33,165.56,111.13,167.83,444.52,Single-ply,SBD,M
Boys,109.77,12,Anthony Rivera,Bastrop,108.41,158.76,81.65,172.37,412.77,Single-ply,SBD,M
Boys,109.77,13,Josh Cortinas,Austin Bowie,101.15,149.69,92.99,167.83,410.5,Single-ply,SBD,M
Boys,109.77,DQ,Gabriel Sierra,Jarrell,106.59,183.7,,,,Single-ply,SBD,M
Boys,109.77,DQ,Luncion Garcia,Hempstead,104.33,158.76,,,,Single-ply,SBD,M
Boys,124.74,1,Jesse Burtschell,Sealy,121.56,319.78,242.67,276.69,839.15,Single-ply,SBD,M
Boys,124.74,2,Jonovan Allen,Altair Rice,110.04,226.8,136.08,249.48,612.35,Single-ply,SBD,M
Boys,124.74,3,Chad Childs,La Grange,116.57,210.92,147.42,204.12,562.45,Single-ply,SBD,M
Boys,124.74,4,Zach Tesch,Columbus,120.2,208.65,145.15,204.12,557.92,Single-ply,SBD,M
Boys,124.74,5,Robert Kitchen,La Grange,124.28,204.12,124.74,165.56,494.42,Single-ply,SBD,M
Boys,124.74,6,Daniel Velaquez,La Grange,124.74,188.24,108.86,179.17,476.27,Single-ply,SBD,M
Boys,124.74,7,Devin Roberts,Brookshire Royal,119.29,167.83,124.74,181.44,474,Single-ply,SBD,M
Boys,124.74+,1,Willie Hights,Yoakum,147.87,281.23,136.08,226.8,644.1,Single-ply,SBD,M
Boys,124.74+,2,Shiloh Shorten,Liberty Hill,133.81,231.33,136.08,226.8,594.21,Single-ply,SBD,M
Boys,124.74+,3,Timmy Varela,Bellville,133.13,222.26,151.95,195.04,569.26,Single-ply,SBD,M
Boys,124.74+,4,Chad Davis #3,Altair Rice,132.9,224.53,131.54,190.51,546.58,Single-ply,SBD,M
Boys,124.74+,5,Luis Medina,Sealy,126.55,229.06,129.27,176.9,535.24,Single-ply,SBD,M
Boys,124.74+,6,Jody Lilley,Sealy,126.1,179.17,147.42,174.63,501.22,Single-ply,SBD,M
Boys,124.74+,7,Austin Shed,Smithville,125.65,142.88,115.67,129.27,387.82,Single-ply,SBD,M
Boys,124.74+,DQ,Alec Gilliam,Bellville,132.68,,,,,Single-ply,SBD,M
Boys,,NS,Edder Ramirez,Brookshire Royal,,,,,,Single-ply,SBD,M
Boys,,NS,Dj Giles,Brookshire Royal,,,,,,Single-ply,SBD,M
Boys,,NS,James Rocha,Brookshire Royal,,,,,,Single-ply,SBD,M
Boys,,NS,Justin Lavedan,Caldwell,,,,,,Single-ply,SBD,M
Boys,,NS,Kyle Tucker,Hempstead,,,,,,Single-ply,SBD,M
Boys,,NS,Joey Little,Hempstead,,,,,,Single-ply,SBD,M
Boys,,NS,Timothy Gaytan,Hempstead,,,,,,Single-ply,SBD,M
Boys,,NS,Joel Grimaldo,Hempstead,,,,,,Single-ply,SBD,M
Boys,,NS,Brandon Theut,Columbus,,,,,,Single-ply,SBD,M
Boys,,NS,Yan Torres,Jarrell,,,,,,Single-ply,SBD,M
Boys,,NS,Zane Ischy,Jarrell,,,,,,Single-ply,SBD,M
Boys,,NS,Thavian Simmons,Jarrell,,,,,,Single-ply,SBD,M
Boys,,NS,Brandon Dorsett,Liberty Hill,,,,,,Single-ply,SBD,M
Boys,,NS,Matthew Dlouhy,Caldwell,,,,,,Single-ply,SBD,M
Boys,,NS,Gene Wiznewski,Caldwell,,,,,,Single-ply,SBD,M
Boys,,NS,Josh Martin #5,Bellville,,,,,,Single-ply,SBD,M
Boys,,NS,Kamm Coker,Bellville,,,,,,Single-ply,SBD,M
Boys,,NS,Angel Rodríguez #12,Bellville,,,,,,Single-ply,SBD,M
Boys,,NS,Vincent Martinez,Austin Bowie,,,,,,Single-ply,SBD,M
Boys,,NS,Eric Bond,Bastrop,,,,,,Single-ply,SBD,M
Boys,,NS,Max Dayton,Bastrop,,,,,,Single-ply,SBD,M
Boys,,NS,Brandon Gonzalez,Bastrop,,,,,,Single-ply,SBD,M
Boys,,NS,Quentin Freemen,Bastrop,,,,,,Single-ply,SBD,M
Boys,,NS,Nick Gonzales,Rockdale,,,,,,Single-ply,SBD,M
Boys,,NS,Andrew Jenkins,Rockdale,,,,,,Single-ply,SBD,M
Boys,,NS,Alfred Aparicio,Palacios,,,,,,Single-ply,SBD,M
Boys,,NS,John Mora,Wallis Brazos,,,,,,Single-ply,SBD,M
Boys,,NS,Martine Rosales,Weimar,,,,,,Single-ply,SBD,M
Boys,,NS,Troy Deweese,Yoakum,,,,,,Single-ply,SBD,M
