Division,WeightClassKg,Place,Name,Team,BodyweightKg,Best3SquatKg,Best3BenchKg,Best3DeadliftKg,TotalKg,Equipment,Event,Sex
Boys,51.71,1,Matt Reed,Redwater,51.26,92.99,61.23,124.74,278.96,Single-ply,SBD,M
Boys,51.71,2,Jackson Kennedy,Redwater,49.44,79.38,56.7,90.72,226.8,Single-ply,SBD,M
Boys,51.71,3,Wade Simpson,Maud,42.18,68.04,29.48,68.04,165.56,Single-ply,SBD,M
Boys,51.71,4,Carter Gonzales,Linden-Kildare,37.19,56.7,29.48,63.5,149.69,Single-ply,SBD,M
Boys,55.79,1,Mathew Solomon,Texarkana Liberty-Eylau,53.98,158.76,90.72,158.76,408.23,Single-ply,SBD,M
Boys,55.79,2,Brandon Nettles,Texarkana Liberty-Eylau,54.88,136.08,88.45,136.08,360.61,Single-ply,SBD,M
Boys,55.79,3,McKenzie Davis,Texarkana Liberty-Eylau,55.34,142.88,77.11,127.01,347,Single-ply,SBD,M
Boys,55.79,4,Matt Hahn,Texarkana Pleasant Grove,54.88,122.47,63.5,136.08,322.05,Single-ply,SBD,M
Boys,55.79,5,Wyatt Hoffman,Linden-Kildare,53.07,95.25,61.23,117.93,274.42,Single-ply,SBD,M
Boys,55.79,6,Josh Cardwell,Maud,55.79,79.38,56.7,92.99,229.06,Single-ply,SBD,M
Boys,59.87,1,Chase Arras,Texarkana Liberty-Eylau,58.97,147.42,81.65,151.95,381.02,Single-ply,SBD,M
Boys,59.87,2,Austin Wright,Maud,59.87,133.81,56.7,106.59,297.1,Single-ply,SBD,M
Boys,67.13,1,Rod Howard,Texarkana Liberty-Eylau,63.96,183.7,115.67,192.78,492.15,Single-ply,SBD,M
Boys,67.13,2,Austin Calcote,Hughes Springs,65.32,151.95,95.25,151.95,399.16,Single-ply,SBD,M
Boys,67.13,3,Tabari Hill,Texarkana Liberty-Eylau,61.69,147.42,83.91,156.49,387.82,Single-ply,SBD,M
Boys,67.13,4,Reid Bynum,Linden-Kildare,64.41,140.61,83.91,149.69,374.21,Single-ply,SBD,M
Boys,67.13,5,Freddy Curtis,Linden-Kildare,61.23,131.54,77.11,145.15,353.8,Single-ply,SBD,M
Boys,67.13,6,Jarred Scott,Texarkana Pleasant Grove,60.78,136.08,63.5,136.08,335.66,Single-ply,SBD,M
Boys,67.13,7,Jasper Conway,Bogata Rivercrest,66.68,113.4,63.5,154.22,331.12,Single-ply,SBD,M
Boys,67.13,8,Dylan Gibson,Maud,63.96,99.79,63.5,129.27,292.57,Single-ply,SBD,M
Boys,67.13,9,Jacob Urquidi,Redwater,60.78,77.11,63.5,136.08,276.69,Single-ply,SBD,M
Boys,67.13,10,Jason Roach,Maud,65.32,70.31,49.9,90.72,210.92,Single-ply,SBD,M
Boys,67.13,DQ,Cody Davis,New Boston,64.86,88.45,,113.4,,Single-ply,SBD,M
Boys,67.13,DQ,Hunter Bell,Redwater,61.69,106.59,,,,Single-ply,SBD,M
Boys,74.84,1,Lavonte Johnson,Texarkana Liberty-Eylau,73.48,174.63,122.47,188.24,485.34,Single-ply,SBD,M
Boys,74.84,2,Foxx Smith,Redwater,74.39,174.63,113.4,167.83,455.86,Single-ply,SBD,M
Boys,74.84,3,Rob Ward #3,Bogata Rivercrest,74.84,167.83,88.45,192.78,449.06,Single-ply,SBD,M
Boys,74.84,4,Jared Miller,Maud,71.67,181.44,102.06,154.22,437.72,Single-ply,SBD,M
Boys,74.84,5,Greg Morgan,Hughes Springs,70.76,158.76,106.59,158.76,424.11,Single-ply,SBD,M
Boys,74.84,6,Hunter Standley,Redwater,71.21,147.42,95.25,174.63,417.3,Single-ply,SBD,M
Boys,74.84,7,Cody Cummings,Maud,71.21,154.22,102.06,158.76,415.04,Single-ply,SBD,M
Boys,74.84,8,Corky Westmoreland,Hughes Springs,72.12,154.22,97.52,151.95,403.7,Single-ply,SBD,M
Boys,74.84,9,Carson Craytor,Texarkana Pleasant Grove,68.04,151.95,77.11,163.29,392.36,Single-ply,SBD,M
Boys,74.84,10,Lakendrick Stanton,Hughes Springs,72.57,142.88,81.65,161.03,385.55,Single-ply,SBD,M
Boys,74.84,11,Riley Tilley,Hughes Springs,70.31,147.42,70.31,129.27,347,Single-ply,SBD,M
Boys,74.84,12,Colton Finney,Redwater,74.39,120.2,70.31,136.08,326.59,Single-ply,SBD,M
Boys,74.84,13,Doug Crawford,New Boston,71.21,97.52,70.31,124.74,292.57,Single-ply,SBD,M
Boys,82.1,1,Leo Meyers,Linden-Kildare,77.11,197.31,136.08,204.12,537.51,Single-ply,SBD,M
Boys,82.1,2,Josh Werline,Bogata Rivercrest,80.74,190.51,90.72,181.44,462.66,Single-ply,SBD,M
Boys,82.1,3,Kendrick Blake,Texarkana Liberty-Eylau,81.19,172.37,81.65,208.65,462.66,Single-ply,SBD,M
Boys,82.1,4,Dalton White,Redwater,82.1,165.56,111.13,181.44,458.13,Single-ply,SBD,M
Boys,82.1,5,Hunter Hatfield,Texarkana Pleasant Grove,81.19,170.1,102.06,174.63,446.79,Single-ply,SBD,M
Boys,82.1,6,Aaron Shaw,Maud,79.83,156.49,97.52,174.63,428.64,Single-ply,SBD,M
Boys,82.1,7,Caleb Collins,Maud,77.56,131.54,90.72,161.03,383.29,Single-ply,SBD,M
Boys,82.1,8,Tom Daniels,New Boston,75.3,136.08,83.91,142.88,362.87,Single-ply,SBD,M
Boys,82.1,9,Xavier Jackson,Clarksville,81.65,124.74,92.99,142.88,360.61,Single-ply,SBD,M
Boys,82.1,10,Ryan Bradley,New Boston,76.2,102.06,54.43,111.13,267.62,Single-ply,SBD,M
Boys,82.1,DQ,Daone Hall,New Boston,76.2,,,,,Single-ply,SBD,M
Boys,82.1,DQ,Herlin James,Texarkana Liberty-Eylau,75.75,181.44,99.79,,,Single-ply,SBD,M
Boys,89.81,1,Collin Craytor,Texarkana Pleasant Grove,89.36,215.46,124.74,199.58,539.77,Single-ply,SBD,M
Boys,89.81,2,Michael Martinez,Hughes Springs,84.82,199.58,136.08,190.51,526.17,Single-ply,SBD,M
Boys,89.81,3,Nathan Pugh,Texarkana Pleasant Grove,85.73,181.44,140.61,172.37,494.42,Single-ply,SBD,M
Boys,89.81,4,Phillip Pyle,New Boston,88.45,163.29,102.06,165.56,430.91,Single-ply,SBD,M
Boys,89.81,5,Cade Pittman,Hughes Springs,83.46,161.03,111.13,149.69,421.84,Single-ply,SBD,M
Boys,89.81,6,Tim Carr,Maud,87.54,136.08,83.91,170.1,390.09,Single-ply,SBD,M
Boys,89.81,7,Josh Jones #7,Maud,86.64,156.49,83.91,147.42,387.82,Single-ply,SBD,M
Boys,89.81,8,Isaiah Currie,Linden-Kildare,85.73,142.88,90.72,149.69,383.29,Single-ply,SBD,M
Boys,89.81,DQ,Blake Riddle,Redwater,83.91,120.2,,,,Single-ply,SBD,M
Boys,99.79,1,Mathew Sellers,Texarkana Liberty-Eylau,91.17,240.4,136.08,192.78,569.26,Single-ply,SBD,M
Boys,99.79,2,William Wayne,Texarkana Liberty-Eylau,98.43,190.51,145.15,213.19,548.85,Single-ply,SBD,M
Boys,99.79,3,Neco Smith,Texarkana Pleasant Grove,97.52,213.19,136.08,190.51,539.77,Single-ply,SBD,M
Boys,99.79,4,Seth Lemley,Texarkana Pleasant Grove,92.08,181.44,113.4,158.76,453.59,Single-ply,SBD,M
Boys,99.79,5,Riley Russell,Bogata Rivercrest,99.79,172.37,113.4,154.22,439.98,Single-ply,SBD,M
Boys,99.79,6,Christian Smith,Hughes Springs,94.8,149.69,102.06,158.76,410.5,Single-ply,SBD,M
Boys,99.79,7,Lane Burleson,Linden-Kildare,99.79,158.76,83.91,165.56,408.23,Single-ply,SBD,M
Boys,99.79,8,Keith Baldwin,New Boston,91.63,158.76,102.06,140.61,401.43,Single-ply,SBD,M
Boys,99.79,9,Darrion Dockins,Clarksville,99.79,136.08,95.25,136.08,367.41,Single-ply,SBD,M
Boys,99.79,DQ,Gary Alexander,Maud,99.79,204.12,102.06,,,Single-ply,SBD,M
Boys,99.79,DQ,Ricky Johnson,Texarkana Liberty-Eylau,91.63,206.38,99.79,,,Single-ply,SBD,M
Boys,109.77,1,Reggie Scales,New Boston,108.86,299.37,197.31,249.48,746.16,Single-ply,SBD,M
Boys,109.77,2,Morocco Arnold,Texarkana Liberty-Eylau,106.14,263.08,172.37,274.42,709.87,Single-ply,SBD,M
Boys,109.77,3,Kadarrian Chism,Hughes Springs,100.7,215.46,138.35,217.72,571.53,Single-ply,SBD,M
Boys,109.77,4,Geremy Williams,Clarksville,107.05,176.9,111.13,188.24,476.27,Single-ply,SBD,M
Boys,109.77,5,Trevor Perry,Hughes Springs,107.5,181.44,115.67,170.1,467.2,Single-ply,SBD,M
Boys,109.77,6,Tarique Bolding,Texarkana Pleasant Grove,103.42,181.44,104.33,163.29,449.06,Single-ply,SBD,M
Boys,109.77,7,Mack Boyd,New Boston,101.6,117.93,58.97,117.93,294.84,Single-ply,SBD,M
Boys,124.74,1,Chris Paul,Texarkana Liberty-Eylau,124.74,263.08,161.03,226.8,650.91,Single-ply,SBD,M
Boys,124.74,2,Drew Davis,Texarkana Pleasant Grove,116.12,213.19,136.08,195.04,544.31,Single-ply,SBD,M
Boys,124.74,3,Jermaine Emmers,Clarksville,119.75,204.12,113.4,204.12,521.63,Single-ply,SBD,M
Boys,124.74,4,Brandon Clements,New Boston,121.56,183.7,102.06,183.7,469.47,Single-ply,SBD,M
Boys,124.74,5,Bobby Krider,Linden-Kildare,120.66,158.76,86.18,151.95,396.89,Single-ply,SBD,M
Boys,124.74,6,Taylor Conkleton,Maud,118.84,142.88,61.23,113.4,317.51,Single-ply,SBD,M
Boys,124.74,DQ,Noah Palmertree,Hughes Springs,115.21,181.44,,158.76,,Single-ply,SBD,M
Boys,124.74+,1,Shakeim Woodberry,Clarksville,130.18,272.16,185.97,238.14,696.26,Single-ply,SBD,M
Boys,124.74+,2,Kyree Lewis,Hughes Springs,140.16,226.8,140.61,172.37,539.77,Single-ply,SBD,M
Boys,124.74+,3,Wesley Holmes,New Boston,140.16,226.8,124.74,183.7,535.24,Single-ply,SBD,M
Boys,124.74+,4,Matt Brown #8,Maud,141.52,183.7,120.2,181.44,485.34,Single-ply,SBD,M
Boys,124.74+,DQ,Cameron Jones,Texarkana Liberty-Eylau,145.15,229.06,136.08,,,Single-ply,SBD,M
