Event,Sex,Name,State,BodyweightKg,WeightClassKg,Division,Best3SquatKg,Best3BenchKg,Best3DeadliftKg,TotalKg,Equipment,Place
SBD,F,Mikayla Lohse,SK,49.9,52,Sub-Juniors,117.5,58,156,331.5,Single-ply,1
SBD,M,Aaron Ziffle,SK,92.3,93,Open,285,212.5,272.5,770,Single-ply,1
SBD,M,Jeff Becker,ON,82.6,83,Open,275,181,282.5,738.5,Single-ply,2
SBD,M,Adam Ramzy,BC,82.4,83,Open,330,242.5,300,872.5,Single-ply,1
SBD,F,Rhaea Stinn,SK,71.5,72,Open,223,153,205,581,Single-ply,1
SBD,F,Mary Ann Kaczor,ON,68.2,72,Open,185,120,190,495,Single-ply,2
SBD,F,Shantelle Szuch,SK,62.2,63,Open,175,90,183,448,Single-ply,1
SBD,F,Melanie Ziffle,SK,56.8,57,Open,135,103,165,403,Single-ply,1
SBD,F,Steph Kean,NL,47.6,52,Open,150,77.5,160,387.5,Single-ply,1
SBD,M,Ryan Stinn,SK,137.2,120+,Open,390,275,338,1003,Single-ply,1
SBD,M,Ryan Fowler,SK,137.6,120+,Open,335,252.5,302.5,890,Single-ply,2
SBD,M,Jason Byrne #1,ON,132.9,120+,Open,355,202.5,320,877.5,Single-ply,3
SBD,M,Lucas Tetreault,SK,116.3,120,Open,320,215,275,810,Single-ply,1
SBD,M,Brandon Ward,ON,96.2,105,Open,260,190,275,725,Single-ply,1
SBD,M,Kevin Stirling,ON,89.3,93,Masters 3,195,150,185,530,Single-ply,1
SBD,F,Mary Lupton,ON,93.2,84+,Masters 3,107.5,70,110,287.5,Single-ply,1
SBD,F,Linda Rousseau,ON,78.9,84,Masters 3,130,60,125,315,Single-ply,1
SBD,M,Ron Delaney,NS,82.9,83,Masters 3,205,130,242.5,577.5,Single-ply,1
SBD,M,Glyn Moore,ON,73.9,74,Masters 3,205,130,190,525,Single-ply,1
SBD,F,Lynda Squires,ON,70.6,72,Masters 3,113,65,127.5,305.5,Single-ply,1
SBD,F,Carol Brady,ON,62.4,63,Masters 3,102.5,65,107.5,275,Single-ply,1
SBD,M,Darwin Eckstrom,AB,111.3,120,Masters 3,187.5,140,197.5,525,Single-ply,1
SBD,M,Miroslav Koprnicky,ON,95.2,105,Masters 3,197.5,162.5,236,596,Single-ply,1
SBD,M,Chris Arnold #3,SK,89.2,93,Masters 2,250,140,250,640,Single-ply,1
SBD,M,Sandro D'Angelo,ON,82.2,83,Masters 2,255,162.5,275,692.5,Single-ply,1
SBD,M,Michael Knott,ON,138.6,120+,Masters 2,190,155,175,520,Single-ply,2
SBD,M,Kevin Breiter,AB,131.8,120+,Masters 2,195,185,220,600,Single-ply,1
SBD,M,Ron Strong,ON,118.7,120,Masters 2,260,180,290,730,Single-ply,1
SBD,M,Paul Gidney,NS,101.1,105,Masters 2,245,187.5,280,712.5,Single-ply,1
SBD,M,Dave Walters,ON,92.1,93,Masters 1,300,280,275,855,Single-ply,1
SBD,M,Barry Antoniow,AB,88.4,93,Masters 1,210,200,190,600,Single-ply,2
SBD,F,Aimee Mergaert,BC,115.4,84+,Masters 1,205,125,170,500,Single-ply,1
SBD,M,Lewis Noppers,AB,71.2,74,Masters 1,255,157.5,255,667.5,Single-ply,1
SBD,M,Jean-Sébastien Rhéaume,QC,65.6,66,Masters 1,235,170,225,630,Single-ply,1
SBD,M,Joe Oliveira,BC,104,105,Masters 1,310,230,280,820,Single-ply,1
SBD,M,Travis Campbell,SK,91.6,93,Juniors,210,150,227.5,587.5,Single-ply,1
SBD,F,Brittinay Rowland,SK,93.7,84+,Juniors,180,102.5,180,462.5,Single-ply,1
SBD,M,Devin Benoit,NL,78.6,83,Juniors,235,135,230,600,Single-ply,1
SBD,M,Stephen Price,SK,64.7,66,Juniors,257.5,120,232.5,610,Single-ply,1
SBD,F,Cydney Arnold,SK,61.8,63,Juniors,137.5,85,132.5,355,Single-ply,1
SBD,F,Robyn Pearce,SK,56.6,57,Juniors,140,72.5,130,342.5,Single-ply,1
SBD,M,Tyler Ramsay,PE,117.2,120,Juniors,325,220,280,825,Single-ply,1
SBD,M,Mark Plummer #1,ON,85.6,93,Sub-Juniors,232.5,152.5,245,630,Raw,2
SBD,M,Jake Navarra,QC,90.8,93,Sub-Juniors,225,135,290,650,Raw,1
SBD,F,McKenzie Strait,NL,77.6,84,Sub-Juniors,115,40,137.5,292.5,Raw,1
SBD,M,Myguel Bouchard,QC,82,83,Sub-Juniors,185,125,182.5,492.5,Raw,2
SBD,M,Marc-Antoine Tremblay,QC,80.9,83,Sub-Juniors,205,117.5,212.5,535,Raw,1
SBD,M,Noah Ukrainetz,ON,71.8,74,Sub-Juniors,210,112.5,212.5,535,Raw,1
SBD,M,Chris Tobin,NL,72.2,74,Sub-Juniors,200,105,230,535,Raw,2
SBD,F,Maria AuCoin,NL,69.1,72,Sub-Juniors,77.5,32.5,92.5,202.5,Raw,2
SBD,F,Camille Tremblay,QC,70.7,72,Sub-Juniors,147.5,65,142.5,355,Raw,1
SBD,M,Ryan McColeman,ON,64.8,66,Sub-Juniors,157.5,100,175,432.5,Raw,1
SBD,F,Brenna Campbell,ON,57.9,63,Sub-Juniors,75,45,85,205,Raw,1
SBD,M,Darcy Ducharme,ON,53.7,59,Sub-Juniors,145,81,147.5,373.5,Raw,1
SBD,F,Samantha Hender,NL,57,57,Sub-Juniors,110,50,127.5,287.5,Raw,1
SBD,F,Mikayla Lohse,SK,50.7,52,Sub-Juniors,100.5,50,127.5,278,Raw,1
SBD,M,Paul Farbacher,SK,98.4,105,Sub-Juniors,241,155,263,659,Raw,1
SBD,M,Ryan Kells,NS,92.1,93,Open,180,112.5,260,552.5,Raw,9
SBD,M,Jonathan Simard,QC,92.2,93,Open,255,190,235,680,Raw,5
SBD,M,Jon Marrese,AB,92.1,93,Open,225,120,245,590,Raw,8
SBD,M,Jeff Bilyk,SK,92.7,93,Open,230,160,267.5,657.5,Raw,7
SBD,M,Jamie Emberley,ON,93,93,Open,272.5,175,295,742.5,Raw,2
SBD,M,Dave Stevens,SK,90,93,Open,257.5,150,282.5,690,Raw,3
SBD,M,Dan Lamoureux,MB,91.6,93,Open,257.5,180,305,742.5,Raw,1
SBD,M,Brandon Summers,ON,91.1,93,Open,257.5,170,262.5,690,Raw,4
SBD,M,Andrew Lutzuk,QC,91.9,93,Open,240,147.5,280,667.5,Raw,6
SBD,F,Stacey Price,NL,127.3,84+,Open,160,92.5,152.5,405,Raw,3
SBD,F,Lana Price-Wright,SK,129.8,84+,Open,150,72.5,150,372.5,Raw,4
SBD,F,Katherine Duckworth,QC,111.3,84+,Open,140,95,185,420,Raw,2
SBD,F,Jessie Buydens,SK,107.9,84+,Open,160,102.5,180,442.5,Raw,1
SBD,F,Natasha Ching,NS,82.1,84,Open,140,70,165,375,Raw,3
SBD,F,Marianne Marchildon,SK,72.5,84,Open,130,75,155,360,Raw,5
SBD,F,Maggie Payne,NL,80.4,84,Open,132.5,60,145,337.5,Raw,7
SBD,F,Kaiya McNeill-Payeur,BC,82.7,84,Open,130,85,165,380,Raw,2
SBD,F,Elizabeth Anderson,BC,74,84,Open,112.5,57.5,147.5,317.5,Raw,8
SBD,F,Eileen DuPlooy,NS,72.8,84,Open,157.5,90,187.5,435,Raw,1
SBD,F,Claire Hopkin,SK,74.6,84,Open,132.5,72.5,152.5,357.5,Raw,6
SBD,F,Angelina Van Ryswyk,AB,82.8,84,Open,135,77.5,162.5,375,Raw,4
SBD,M,Sean McCarthy #3,NL,82.7,83,Open,210,140,240,590,Raw,5
SBD,M,Robert Perry,NL,82.2,83,Open,200,137.5,260,597.5,Raw,3
SBD,M,Quin Ferguson,MB,78.5,83,Open,205,125,260,590,Raw,4
SBD,M,Joseph Benoit,NS,82,83,Open,205,125,232.5,562.5,Raw,7
SBD,M,Jason Cain,SK,80.8,83,Open,210,132.5,230,572.5,Raw,6
SBD,M,Fernando Serraino,ON,82.7,83,Open,252.5,165,272.5,690,Raw,2
SBD,M,Tom Kean,NL,73.9,74,Open,215,150,255,620,Raw,1
SBD,M,Steven Chen,AB,72.3,74,Open,190,117.5,237.5,545,Raw,6
SBD,M,Sean Janzer,BC,73.1,74,Open,210,120,242.5,572.5,Raw,3
SBD,M,Robert Hor,BC,72.7,74,Open,175,135,205,515,Raw,8
SBD,M,Marc Morris,SK,74,74,Open,192.5,122.5,242.5,557.5,Raw,4
SBD,M,Dave Roy,QC,72.9,74,Open,192.5,115,230,537.5,Raw,7
SBD,M,Corey Grandy,NL,73.5,74,Open,202.5,142.5,235,580,Raw,2
SBD,M,Adam Manery,AB,73,74,Open,200,127.5,220,547.5,Raw,5
SBD,F,Sarah Leighton,ON,70.8,72,Open,160,102.5,170,432.5,Raw,2
SBD,F,Rhaea Stinn,SK,71.1,72,Open,190,115.5,182.5,488,Raw,1
SBD,F,Nicole Davies,QC,71.2,72,Open,145,82.5,175,402.5,Raw,3
SBD,F,Melissa Ma Colbert,NL,71.9,72,Open,160,77.5,155,392.5,Raw,5
SBD,F,Melissa Leier,SK,69.4,72,Open,112.5,67.5,150,330,Raw,8
SBD,F,Meg Garrett,ON,69.7,72,Open,120,90,167.5,377.5,Raw,7
SBD,F,Marie-Éléonore Baptiste,QC,71,72,Open,145,75,167.5,387.5,Raw,6
SBD,F,Mallory Nash,NL,70,72,Open,132.5,55,140,327.5,Raw,9
SBD,F,Jennifer Dorr,ON,70.4,72,Open,145,70,177.5,392.5,Raw,4
SBD,M,Stephen Cascioli,ON,64.9,66,Open,235,150,242.5,627.5,Raw,1
SBD,M,Ryan Kolesar,MB,63.5,66,Open,177.5,110,220,507.5,Raw,4
SBD,M,Kent Brown,SK,65.1,66,Open,182.5,135,200,517.5,Raw,2
SBD,M,Alfred Jong,AB,63.4,66,Open,177.5,107.5,222.5,507.5,Raw,3
SBD,F,Sarah Kolbuc,ON,60.8,63,Open,135,77.5,142.5,355,Raw,5
SBD,F,Sarah Clark,ON,62.9,63,Open,130,57.5,145,332.5,Raw,9
SBD,F,Samantha March,NL,62.9,63,Open,122.5,67.5,170,360,Raw,4
SBD,F,Natalie Nikiforuk,AB,61.1,63,Open,120,70,150,340,Raw,7
SBD,F,Meighan Chafe,AB,61.3,63,Open,117.5,65,140,322.5,Raw,11
SBD,F,Megan Carroll,NL,62.4,63,Open,130,57.5,165,352.5,Raw,6
SBD,F,Meana Albersworth,ON,62.7,63,Open,132.5,90,152.5,375,Raw,2
SBD,F,Kacey Baines,QC,61.3,63,Open,127.5,70,178,375.5,Raw,1
SBD,F,Jasmine Clarke,QC,61,63,Open,127.5,70,130,327.5,Raw,10
SBD,F,Becky Lauridsen,BC,62.1,63,Open,115,72.5,145,332.5,Raw,8
SBD,F,Amy Smith #3,SK,62.2,63,Open,143,80,142.5,365.5,Raw,3
SBD,F,Sarah Kelly #2,NL,56.9,57,Open,90,52.5,122.5,265,Raw,13
SBD,F,Nancy Kroeker,NL,52.6,57,Open,97.5,55,130,282.5,Raw,11
SBD,F,Michelle Smith #3,NS,56,57,Open,132.5,67.5,157.5,357.5,Raw,3
SBD,F,Miriam Schwabe,ON,56.2,57,Open,110,70,140,320,Raw,5
SBD,F,Maria Htee,NL,56.8,57,Open,160,85,150,395,Raw,2
SBD,F,Joanna Marriot,ON,54.8,57,Open,90,55,137.5,282.5,Raw,12
SBD,F,Jessica Benedetto,QC,56.6,57,Open,140,98,164,402,Raw,1
SBD,F,Jennifer LeDrew,NL,55.9,57,Open,102.5,57.5,125,285,Raw,10
SBD,F,Erin Ashbacher,AB,53.5,57,Open,102.5,65,135,302.5,Raw,7
SBD,F,Elizibeth Fournier,ON,56.3,57,Open,95,55,145,295,Raw,8
SBD,F,Catherine Toupin,QC,56.4,57,Open,110,52.5,130,292.5,Raw,9
SBD,F,Brittney Bergen,SK,56.6,57,Open,130,72.5,142.5,345,Raw,4
SBD,F,Angela Williams,NL,56.4,57,Open,120,50,137.5,307.5,Raw,6
SBD,F,Robyn Ripley,ON,51.9,52,Open,125,72.5,145,342.5,Raw,2
SBD,F,Michelle Marsh,NL,51.7,52,Open,105,47.5,95,247.5,Raw,4
SBD,F,Joanna Rieber,ON,50.5,52,Open,122.5,82.5,145,350,Raw,1
SBD,F,Jessica Best,NL,51.7,52,Open,105,55,150,310,Raw,3
SBD,F,Steph Kean,NL,46.3,47,Open,130,65,150,345,Raw,1
SBD,F,Robin Gallant,NL,46.9,47,Open,80,52.5,122.5,255,Raw,2
SBD,M,Luke Gordon,SK,135.6,120+,Open,242.5,160,290,692.5,Raw,5
SBD,M,Kelly Branton,ON,147.9,120+,Open,385,247.5,305,937.5,Raw,1
SBD,M,Josh Simpson,BC,137.2,120+,Open,280,215,295,790,Raw,4
SBD,M,Jason Byrne #1,ON,133.9,120+,Open,320,215,305,840,Raw,3
SBD,M,Conrad Davies,ON,127.5,120+,Open,255,167.5,267.5,690,Raw,6
SBD,M,Brad Kleefeld,SK,139.9,120+,Open,325,197.5,320,842.5,Raw,2
SBD,M,Tyler Harnett,SK,119.5,120,Open,270,180,270,720,Raw,5
SBD,M,Justin Roberts #1,NS,113.5,120,Open,232.5,145,290,667.5,Raw,6
SBD,M,Garrett Cartwright-Bentley,ON,113.4,120,Open,287.5,182.5,287.5,757.5,Raw,3
SBD,M,Erik Willis,ON,116.2,120,Open,295,205,332.5,832.5,Raw,1
SBD,M,Brody Laybolt,AB,118.4,120,Open,275,190,320,785,Raw,2
SBD,M,Adrian Locke,AB,116,120,Open,290,182.5,282.5,755,Raw,4
SBD,M,Nicolas Tremblay,QC,103.3,105,Open,230,187.5,330,747.5,Raw,2
SBD,M,Marc Cardinal,QC,102,105,Open,262.5,140,315,717.5,Raw,5
SBD,M,Laurent Fontaine,QC,103.1,105,Open,280,180,295,755,Raw,1
SBD,M,Kevin Farrell,NL,103.9,105,Open,212.5,142.5,252.5,607.5,Raw,10
SBD,M,John Stanley,NL,102.3,105,Open,270,187.5,280,737.5,Raw,4
SBD,M,Joël Boulianne,QC,103.8,105,Open,250,200,297.5,747.5,Raw,3
SBD,M,James Mohns,SK,104.2,105,Open,232.5,180,262.5,675,Raw,6
SBD,M,Denis LaBreche,SK,103.6,105,Open,250,150,270,670,Raw,7
SBD,M,David Kang,BC,104.2,105,Open,237.5,132.5,242.5,612.5,Raw,9
SBD,M,Brian Talbot,NS,97.2,105,Open,230,157.5,245,632.5,Raw,8
SBD,M,Mike Foley,SK,81,83,Masters 4,100,115,155,370,Raw,1
SBD,M,Kevin Stirling,ON,90.5,93,Masters 3,160,132.5,200,492.5,Raw,1
SBD,M,Frank Williams,NL,88.8,93,Masters 3,140,82.5,200,422.5,Raw,2
SBD,F,Linda Rousseau,ON,77.7,84,Masters 3,110,65,117.5,292.5,Raw,1
SBD,M,Tilman Gallant,PE,82.1,83,Masters 3,130,135.5,150,415.5,Raw,2
SBD,M,Ron Delaney,NS,82.2,83,Masters 3,172.5,117.5,247.5,537.5,Raw,1
SBD,M,Brian Desjarlais,SK,73.9,74,Masters 3,130,120,160,410,Raw,1
SBD,F,Lynn Lister,ON,70.7,72,Masters 3,65,60,100,225,Raw,1
SBD,F,Janet Warne,QC,55.6,57,Masters 3,85,54,92.5,231.5,Raw,1
SBD,M,Bill Stevens,ON,107.9,120,Masters 3,170,112.5,190,472.5,Raw,1
SBD,M,Paul Francis,ON,103.3,105,Masters 3,177.5,146,215,538.5,Raw,1
SBD,M,Miroslav Koprnicky,ON,95.5,105,Masters 3,165,145.5,215,525.5,Raw,2
SBD,M,John Fraser,NS,88.2,93,Masters 2,162.5,142.5,217.5,522.5,Raw,4
SBD,M,Glen Cormier,NL,90.6,93,Masters 2,232.5,150,230,612.5,Raw,1
SBD,M,Darren Hann,NL,91,93,Masters 2,220,117.5,200,537.5,Raw,3
SBD,M,Barry McEvoy,ON,91.4,93,Masters 2,212.5,147.5,230,590,Raw,2
SBD,F,Shelley Colter,ON,114.9,84+,Masters 2,112.5,67.5,147.5,327.5,Raw,2
SBD,F,Sandra Nase,SK,105.4,84+,Masters 2,102.5,60,165.5,328,Raw,1
SBD,F,Janet Martin,NL,82.7,84,Masters 2,108,45,142.5,295.5,Raw,1
SBD,M,Sandro D'Angelo,ON,82.5,83,Masters 2,212.5,130,250,592.5,Raw,2
SBD,M,Jeff Becker,ON,82.7,83,Masters 2,220.5,150,270,640.5,Raw,1
SBD,M,James Abraham,ON,82.9,83,Masters 2,200,130,242.5,572.5,Raw,3
SBD,M,Brett Zoerb,SK,79.4,83,Masters 2,137.5,107.5,185,430,Raw,4
SBD,M,Greg Platsko,ON,73.9,74,Masters 2,147.5,117.5,210,475,Raw,1
SBD,M,Glen Chaytor,NL,68.6,74,Masters 2,165,95,175,435,Raw,2
SBD,F,Linda McFeeters,ON,70.4,72,Masters 2,95,65,132.5,292.5,Raw,1
SBD,F,Gayle Johnson,NL,71.1,72,Masters 2,72.5,52.5,133,258,Raw,2
SBD,F,Sandy Bellan-Miron,AB,61.8,63,Masters 2,82.5,45,125,252.5,Raw,1
SBD,F,Karen Maxwell,ON,59.6,63,Masters 2,87.5,47.5,110,245,Raw,2
SBD,F,Karen Hann,NL,61.8,63,Masters 2,90,50,102.5,242.5,Raw,3
SBD,F,Kimberly Power,ON,54.7,57,Masters 2,97.5,57.5,107.5,262.5,Raw,1
SBD,F,Anne Kayler,ON,55.7,57,Masters 2,72.5,47.5,102.5,222.5,Raw,2
SBD,F,Mira Slapinski,BC,45.6,47,Masters 2,77.5,37.5,102.5,217.5,Raw,1
SBD,M,Tom Nicholls,PE,125.4,120+,Masters 2,272.5,200.5,280,753,Raw,1
SBD,M,Ron Strong,ON,118.5,120,Masters 2,225,145,275,645,Raw,2
SBD,M,Mark Giffin,ON,118.3,120,Masters 2,272.5,225,295,792.5,Raw,1
SBD,M,Claude Dallaire,QC,93.2,105,Masters 2,215,132.5,250,597.5,Raw,1
SBD,M,Tim Scantlebury,NB,90.6,93,Masters 1,190,117.5,205,512.5,Raw,5
SBD,M,Matthew MacKay,NS,92.6,93,Masters 1,195,137.5,257.5,590,Raw,2
SBD,M,Jeff Butt,NL,92.6,93,Masters 1,230,160,250,640,Raw,1
SBD,M,Dave Pigozzo,ON,92.8,93,Masters 1,190,132.5,235,557.5,Raw,4
SBD,M,Barry Antoniow,AB,87,93,Masters 1,190,172.5,210,572.5,Raw,3
SBD,F,Brandee Borne,SK,100.3,84+,Masters 1,142.5,67.5,137.5,347.5,Raw,2
SBD,F,Bonney Rempel,BC,103.6,84+,Masters 1,170,102.5,150,422.5,Raw,1
SBD,F,Yvonne Sanche,AB,78.2,84,Masters 1,117.5,67.5,142.5,327.5,Raw,3
SBD,F,Wanda Lewis,NL,83,84,Masters 1,115,57.5,150,322.5,Raw,4
SBD,F,Heather Foote,NL,83.6,84,Masters 1,127.5,65,147.5,340,Raw,2
SBD,F,Genevieve Grant,SK,83,84,Masters 1,117.5,75.5,155,348,Raw,1
SBD,M,Robert King,NL,82.8,83,Masters 1,211,137.5,242.5,591,Raw,2
SBD,M,PK Mills,ON,81.2,83,Masters 1,220,140,280,640,Raw,1
SBD,M,Gary Lacoursiere,ON,72.2,74,Masters 1,150,120,182.5,452.5,Raw,1
SBD,F,Natasha Dunn-Kvedaras,PE,68,72,Masters 1,110,77.5,145,332.5,Raw,1
SBD,F,Coreen Neilson,AB,71,72,Masters 1,100,57.5,140,297.5,Raw,2
SBD,M,Vijay Shetty,ON,64.3,66,Masters 1,140,117.5,200,457.5,Raw,1
SBD,F,Sandra Drake,AB,61.8,63,Masters 1,102.5,57.5,145,305,Raw,3
SBD,F,Frances Manias,ON,61.7,63,Masters 1,130,77.5,155,362.5,Raw,1
SBD,F,Dana Mills,NL,61.8,63,Masters 1,130,67.5,125,322.5,Raw,2
SBD,M,Tim Nadeau,AB,140.1,120+,Masters 1,222.5,127.5,260,610,Raw,3
SBD,M,Richard DeBanks,BC,134.3,120+,Masters 1,250,180,260,690,Raw,1
SBD,M,Murray Anderson,ON,146.8,120+,Masters 1,245,140,250,635,Raw,2
SBD,M,Bob Benoit,NL,134,120+,Masters 1,192.5,152.5,235,580,Raw,4
SBD,M,Steve Magistrale,ON,119.6,120,Masters 1,245,180,270,695,Raw,1
SBD,M,Steve Campbell,NL,118.6,120,Masters 1,250,140,262.5,652.5,Raw,3
SBD,M,John Giffen,AB,117.4,120,Masters 1,222.5,227.5,227.5,677.5,Raw,2
SBD,M,Adam Day,ON,110.4,120,Masters 1,235,152.5,237.5,625,Raw,4
SBD,M,Leon Brown,ON,100,105,Masters 1,255.5,215,257.5,728,Raw,1
SBD,M,Jean-Derek MacNeill,AB,101.6,105,Masters 1,245,162.5,255,662.5,Raw,3
SBD,M,Brian George,NL,104.4,105,Masters 1,242.5,145,277.5,665,Raw,2
SBD,M,Tanner Lepage,SK,92.3,93,Juniors,202.5,145,220,567.5,Raw,5
SBD,M,Michael Mighton,BC,92.9,93,Juniors,255,155,257.5,667.5,Raw,2
SBD,M,Kurtis Tallaire,MB,91.6,93,Juniors,187.5,107.5,60,355,Raw,8
SBD,M,Kerry Dennison,ON,92.4,93,Juniors,222.5,167.5,295,685,Raw,1
SBD,M,Brandon Goodwin,NL,93,93,Juniors,210,145,210,565,Raw,6
SBD,M,Brandon Cooney,NL,88.6,93,Juniors,227.5,140,237.5,605,Raw,4
SBD,M,Andy Langin,NL,92,93,Juniors,215,95,230,540,Raw,7
SBD,M,Ajay Paul Sahota,ON,91.5,93,Juniors,227.5,127.5,300,655,Raw,3
SBD,F,Janessa Ward,NL,151.6,84+,Juniors,160,67.5,170,397.5,Raw,2
SBD,F,Alyssa Smith #1,ON,85.7,84+,Juniors,195,100,225,520,Raw,1
SBD,F,Leah Vardy,NL,82.9,84,Juniors,115,55,137.5,307.5,Raw,1
SBD,M,Trent Blanchard,ON,81.8,83,Juniors,255,120,280.5,655.5,Raw,2
SBD,M,Stephen Ledrew,NL,81.7,83,Juniors,185,130,217.5,532.5,Raw,12
SBD,M,Simon McNamee,NS,82.8,83,Juniors,200,127.5,250,577.5,Raw,6
SBD,M,Nick Hayward,NL,81.1,83,Juniors,197.5,120,230,547.5,Raw,11
SBD,M,Michael Previdsa,ON,82.7,83,Juniors,250,152.5,289,691.5,Raw,1
SBD,M,Khashayar Farzam,ON,81.1,83,Juniors,215,177.5,255,647.5,Raw,3
SBD,M,Jordan Stuart,NL,79.8,83,Juniors,177.5,102.5,232.5,512.5,Raw,14
SBD,M,Jordan Morgan,NL,80.3,83,Juniors,192.5,125,212.5,530,Raw,13
SBD,M,Jonathan Thoms,NL,81.9,83,Juniors,215,137.5,210,562.5,Raw,7
SBD,M,Jason Dellatolla,QC,81.8,83,Juniors,227.5,135,230,592.5,Raw,4
SBD,M,Francis Martineau,QC,82.9,83,Juniors,207.5,135,247.5,590,Raw,5
SBD,M,Brent Butler,NL,82.6,83,Juniors,190,115,245,550,Raw,10
SBD,M,Andrew Haley,NL,79,83,Juniors,192.5,105,195,492.5,Raw,15
SBD,M,Ahmad Eid,AB,80.9,83,Juniors,185,117.5,250,552.5,Raw,9
SBD,M,Adam Beaumaster,NL,80.2,83,Juniors,195,125,235,555,Raw,8
SBD,M,Paul Mitchell,NL,74,74,Juniors,185,110,217.5,512.5,Raw,9
SBD,M,Mike Collins,NL,73.6,74,Juniors,195,117.5,245,557.5,Raw,4
SBD,M,Kristopher Tiller,NL,71.7,74,Juniors,195,150,210,555,Raw,5
SBD,M,Justin Smith #1,PE,70,74,Juniors,230,142.5,275,647.5,Raw,2
SBD,M,Josh Hancott,NL,73.9,74,Juniors,251,165,270,686,Raw,1
SBD,M,Jimmy Marois,AB,73.6,74,Juniors,187.5,107.5,235,530,Raw,8
SBD,M,Jeremy Coles,NL,71.5,74,Juniors,175,125,235,535,Raw,7
SBD,M,Christian Pearce,SK,73.9,74,Juniors,207.5,135,212.5,555,Raw,6
SBD,M,Chris DiGiovanni,ON,71.8,74,Juniors,185,110,205,500,Raw,10
SBD,M,Ben Langley,MB,72.8,74,Juniors,215,137.5,220,572.5,Raw,3
SBD,F,Kelli Linehan,NL,72,72,Juniors,127.5,55,137.5,320,Raw,4
SBD,F,Carolyne Savage,ON,69.5,72,Juniors,125,75,172.5,372.5,Raw,1
SBD,F,Ashley Corcoran,AB,66.9,72,Juniors,138,62.5,137.5,338,Raw,2
SBD,F,Alexandra Kousathana,ON,72,72,Juniors,125,65,135,325,Raw,3
SBD,M,Norvyn Bagalay,AB,65.4,66,Juniors,180,142.5,220,542.5,Raw,2
SBD,M,Larry Ko,AB,65.9,66,Juniors,162.5,92.5,190,445,Raw,5
SBD,M,Jesse Moores,ON,64.6,66,Juniors,205,135,236,576,Raw,1
SBD,M,Cameron Preymack,SK,65.3,66,Juniors,175,130,232.5,537.5,Raw,3
SBD,M,Aaron Hopkins #2,NL,64.2,66,Juniors,167.5,117.5,215,500,Raw,4
SBD,F,Teighan McIntyre,ON,62.2,63,Juniors,122.5,67.5,147.5,337.5,Raw,1
SBD,F,Justine Maltais,QC,62.2,63,Juniors,105,67.5,125,297.5,Raw,4
SBD,F,Joanne Payne,NL,62.5,63,Juniors,130,52.5,127.5,310,Raw,3
SBD,F,Jazz Smyl Joly,ON,62.7,63,Juniors,102.5,55,120,277.5,Raw,5
SBD,F,Brittany Bolt,NL,61.6,63,Juniors,105,50,155,310,Raw,2
SBD,M,Jason Luo,AB,58.8,59,Juniors,185,100,197.5,482.5,Raw,1
SBD,F,Savanah Porzuczek,QC,56.4,57,Juniors,135,88.5,147.5,371,Raw,1
SBD,F,Breann Thiessen,AB,51.6,52,Juniors,135,70.5,135.5,341,Raw,1
SBD,F,Rhonda Wong,AB,46.7,47,Juniors,107.5,55,135,297.5,Raw,1
SBD,M,Tyler Ramsay,PE,116.3,120,Juniors,255,155,282.5,692.5,Raw,2
SBD,M,Philip Brougham,ON,117.8,120,Juniors,295,177.5,270,742.5,Raw,1
SBD,M,Jake Ripco,ON,117.8,120,Juniors,257.5,155,270,682.5,Raw,3
SBD,M,Braeden Dale,ON,109.7,120,Juniors,205,160,255,620,Raw,4
SBD,M,Wiliam DeJong,BC,100.9,105,Juniors,230,145,295.5,670.5,Raw,4
SBD,M,Tyler Hedderson,NL,104.6,105,Juniors,235,140,282.5,657.5,Raw,5
SBD,M,Taylor Morrison,NS,99.9,105,Juniors,237.5,155,252.5,645,Raw,6
SBD,M,Russell Agnew,SK,104,105,Juniors,247.5,147.5,290,685,Raw,2
SBD,M,Matthew Rice,PE,104.1,105,Juniors,255,155,275,685,Raw,3
SBD,M,Jackson Spencer,ON,104.2,105,Juniors,275,160,265,700,Raw,1
SBD,M,Francis Lalancette,QC,102,105,Juniors,215,169,240,624,Raw,7
SBD,M,Carey Link,MB,101.9,105,Juniors,185,145,240,570,Raw,8
B,M,Chad Sinclair,NS,91.6,93,Open,,160,,160,Single-ply,1
B,M,Jeremy Lundgren,SK,129.5,120+,Open,,190,,190,Single-ply,1
B,M,Lucas Tetreault,SK,118.8,120,Open,,215,,215,Single-ply,1
B,M,Mike Loder,NL,101,105,Open,,215,,215,Single-ply,1
B,M,Darwin Eckstrom,AB,110.5,120,Masters 3,,160,,160,Single-ply,1
B,F,Sue Thomson,ON,51.3,52,Masters 2,,77.5,,77.5,Single-ply,1
B,M,Paul Gidney,NS,102.2,105,Masters 2,,182.5,,182.5,Single-ply,1
B,M,Rob Truchon,ON,92.7,93,Masters 1,,142.5,,142.5,Single-ply,2
B,M,Barry Antoniow,AB,88.7,93,Masters 1,,227.5,,227.5,Single-ply,1
B,M,Bill You,BC,76.8,83,Masters 1,,155,,155,Single-ply,1
B,M,Gary Lacoursiere,ON,73.4,74,Masters 1,,135,,135,Single-ply,1
B,F,Brenna Campbell,ON,58.5,63,Sub-Juniors,,47.5,,47.5,Raw,1
B,F,Katherine Duckworth,QC,112.3,84+,Open,,90,,90,Raw,1
B,F,Heidi Fowler,SK,87.4,84+,Open,,75,,75,Raw,2
B,M,Joseph Benoit,NS,82.7,83,Open,,117.5,,117.5,Raw,1
B,F,Erin Ashbacher,AB,53.2,57,Open,,67.5,,67.5,Raw,1
B,M,Avi Silverberg,AB,115.1,120,Open,,212.5,,212.5,Raw,1
B,M,Yves Dubois,QC,89.9,93,Masters 3,,137.5,,137.5,Raw,1
B,M,Tilman Gallant,PE,82.1,83,Masters 3,,115,,115,Raw,1
B,M,Brian Desjarlais,SK,74,74,Masters 3,,110,,110,Raw,1
B,F,Lynn Lister,ON,70.5,72,Masters 3,,60,,60,Raw,1
B,M,Mike Armstrong,AB,147.3,120+,Masters 3,,180,,180,Raw,1
B,M,Darwin Eckstrom,AB,110.3,120,Masters 3,,137.5,,137.5,Raw,1
B,M,John Fraser,NS,88.6,93,Masters 2,,135,,135,Raw,1
B,M,John Noguera,ON,82.7,83,Masters 2,,112.5,,112.5,Raw,1
B,F,Denise Henstridge,NL,46.9,47,Masters 2,,60,,60,Raw,1
B,M,Daniel Royer,QC,103.1,105,Masters 2,,100,,100,Raw,2
B,M,Claude Dallaire,QC,93.4,105,Masters 2,,127.5,,127.5,Raw,1
B,M,Rob Truchon,ON,92,93,Masters 1,,105,,105,Raw,2
B,M,Barry Antoniow,AB,88.5,93,Masters 1,,167.5,,167.5,Raw,1
B,F,Bonney Rempel,BC,103.6,84+,Masters 1,,95,,95,Raw,1
B,M,Bill You,BC,75.6,83,Masters 1,,145,,145,Raw,1
B,M,Gary Lacoursiere,ON,73.1,74,Masters 1,,115,,115,Raw,1
B,M,Vijay Shetty,ON,65.6,66,Masters 1,,105,,105,Raw,1
B,M,Richard DeBanks,BC,134.5,120+,Masters 1,,100,,100,Raw,1
B,M,Cameron Preymack,SK,65.8,66,Juniors,,127.5,,127.5,Raw,1
SBD,M,Mark Wasson,NB,81.5,83,Open,250,170,300.5,720.5,Raw,1
