Division,WeightClassKg,Place,Name,Team,BodyweightKg,Best3SquatKg,Best3BenchKg,Best3DeadliftKg,TotalKg,Equipment,Event,Sex
Boys,51.71,1,Ryan Dean,Waco Midway,51.07,122.47,81.65,140.61,344.73,Single-ply,SBD,M
Boys,51.71,2,Curvon Cunningham,Temple,51.26,88.45,56.7,124.74,269.89,Single-ply,SBD,M
Boys,51.71,3,Eliazar Venegas,Waco Midway,43.45,97.52,49.9,106.59,254.01,Single-ply,SBD,M
Boys,55.79,4,Garrett Cooper,Waco Midway,51.89,81.65,54.43,99.79,235.87,Single-ply,SBD,M
Boys,51.71,5,Dylan Vuong,Belton,50.8,86.18,49.9,90.72,226.8,Single-ply,SBD,M
Boys,51.71,6,Heath Pickens,Waco Midway,45.45,52.16,29.48,68.04,149.69,Single-ply,SBD,M
Boys,51.71,DQ,Abraham Villarreal,Belton,50.71,124.74,61.23,,,Single-ply,SBD,M
Boys,59.87,1,Alec Webster,Killeen Shoemaker,55.97,136.08,106.59,163.29,405.97,Single-ply,SBD,M
Boys,55.79,2,Johnny Martinez,Belton,54.25,120.2,79.38,156.49,356.07,Single-ply,SBD,M
Boys,55.79,3,Nick Hickman,Waco Midway,55.7,122.47,81.65,136.08,340.19,Single-ply,SBD,M
Boys,55.79,4,Zaki Hill,Belton,53.61,122.47,58.97,142.88,324.32,Single-ply,SBD,M
Boys,59.87,1,Josh Davis,Killeen Shoemaker,56.52,161.03,95.25,170.1,426.38,Single-ply,SBD,M
Boys,59.87,2,Tye Ochoa,Temple,58.42,163.29,86.18,163.29,412.77,Single-ply,SBD,M
Boys,59.87,3,Quintin Cannon,Belton,58.88,124.74,83.91,147.42,356.07,Single-ply,SBD,M
Boys,59.87,4,Pheonix Phillips,Belton,59.33,131.54,77.11,127.01,335.66,Single-ply,SBD,M
Boys,59.87,5,Keanu Camacho,Copperas Cove,58.33,117.93,68.04,138.35,324.32,Single-ply,SBD,M
Boys,59.87,6,Jalan Perez,Waco Midway,57.42,113.4,58.97,124.74,297.1,Single-ply,SBD,M
Boys,59.87,DQ,John Mendoza,Moody,59.87,,,,,Single-ply,SBD,M
Boys,67.13,1,Xavier Moffitt,Belton,66.22,197.31,106.59,240.4,544.31,Single-ply,SBD,M
Boys,67.13,2,Treston Womack,Waco Midway,67.13,172.37,113.4,188.24,474,Single-ply,SBD,M
Boys,74.84,3,Cairo Attaway,Waco Midway,67.22,158.76,113.4,201.85,474,Single-ply,SBD,M
Boys,67.13,4,Dorrell Whitney,Temple,66.68,165.56,102.06,183.7,451.32,Single-ply,SBD,M
Boys,67.13,5,Bradley Schwartzengraber,Copperas Cove,66.5,172.37,106.59,170.1,449.06,Single-ply,SBD,M
Boys,74.84,6,Javis Lavan,Belton,67.22,147.42,108.86,170.1,426.38,Single-ply,SBD,M
Boys,67.13,7,Demeatric Brandon,Belton,66.32,170.1,86.18,163.29,419.57,Single-ply,SBD,M
Boys,67.13,8,Danny Tucker,Waco,66.95,149.69,92.99,170.1,412.77,Single-ply,SBD,M
Boys,67.13,9,Dominique Bishop,Waco,63.96,145.15,77.11,149.69,371.95,Single-ply,SBD,M
Boys,67.13,10,Ben Bing,Waco,60.96,136.08,79.38,149.69,365.14,Single-ply,SBD,M
Boys,67.13,11,Matt Shillingham,Waco Midway,62.6,120.2,72.57,136.08,328.85,Single-ply,SBD,M
Boys,67.13,12,Bradon Putnam,Moody,60.69,106.59,83.91,124.74,315.25,Single-ply,SBD,M
Boys,67.13,13,Jacob Sosebee,Waco Midway,62.32,90.72,54.43,106.59,251.74,Single-ply,SBD,M
Boys,74.84,1,Harrell Henderson,Waco Midway,73.12,224.53,113.4,206.38,544.31,Single-ply,SBD,M
Boys,82.1,2,Brandon Julian,Belton,75.02,185.97,108.86,192.78,487.61,Single-ply,SBD,M
Boys,74.84,3,Jeremy Rowe,Waco Midway,71.21,158.76,124.74,199.58,483.08,Single-ply,SBD,M
Boys,74.84,4,Malik Stoutamire,Temple,69.58,170.1,106.59,199.58,476.27,Single-ply,SBD,M
Boys,74.84,5,Miguel Anderson,Waco Midway,71.21,172.37,111.13,192.78,476.27,Single-ply,SBD,M
Boys,74.84,6,Jose Bonilla,Killeen Shoemaker,70.49,176.9,99.79,185.97,462.66,Single-ply,SBD,M
Boys,74.84,7,Ledarian Johnson,Copperas Cove,74.3,156.49,120.2,176.9,453.59,Single-ply,SBD,M
Boys,74.84,8,John Allen,Copperas Cove,70.4,170.1,106.59,172.37,449.06,Single-ply,SBD,M
Boys,74.84,9,David Anderson #3,Killeen Shoemaker,74.03,158.76,120.2,154.22,433.18,Single-ply,SBD,M
Boys,74.84,10,Carlton Shanks,Belton,67.49,158.76,95.25,172.37,426.38,Single-ply,SBD,M
Boys,74.84,11,Gerald Wilburn,Waco,69.67,147.42,88.45,167.83,403.7,Single-ply,SBD,M
Boys,74.84,DQ,Elijah Jordan,Copperas Cove,72.48,179.17,,,,Single-ply,SBD,M
Boys,89.81,1,La Charles Montgomery,Waco Midway,82.28,224.53,115.67,204.12,544.31,Single-ply,SBD,M
Boys,89.81,2,Mike Sumrall,Copperas Cove,82.28,204.12,127.01,204.12,535.24,Single-ply,SBD,M
Boys,82.1,3,Carlos Borbon,Temple,78.74,190.51,115.67,204.12,510.29,Single-ply,SBD,M
Boys,82.1,4,Joseph Warehime,Belton,79.11,197.31,120.2,188.24,505.76,Single-ply,SBD,M
Boys,82.1,5,DJ Peapea,Copperas Cove,80.65,188.24,115.67,199.58,503.49,Single-ply,SBD,M
Boys,82.1,6,Eduardo Escobedo,Temple,77.47,181.44,102.06,215.46,498.95,Single-ply,SBD,M
Boys,82.1,7,Ezekiel Jordan,Copperas Cove,78.02,190.51,99.79,208.65,498.95,Single-ply,SBD,M
Boys,82.1,8,Andy Owen,Waco Midway,79.2,195.04,113.4,188.24,496.68,Single-ply,SBD,M
Boys,82.1,9,Justin Joe,Copperas Cove,75.93,170.1,124.74,195.04,489.88,Single-ply,SBD,M
Boys,82.1,10,Breyon Jackson,Copperas Cove,76.48,174.63,115.67,192.78,483.08,Single-ply,SBD,M
Boys,82.1,11,William Curry,Belton,81.37,167.83,120.2,185.97,474,Single-ply,SBD,M
Boys,82.1,12,Jeremiah Leyba,Belton,81.83,192.78,99.79,179.17,471.74,Single-ply,SBD,M
Boys,82.1,13,Quadreon Miller,Belton,81.56,181.44,102.06,181.44,464.93,Single-ply,SBD,M
Boys,82.1,14,Wade Jackson,Copperas Cove,80.92,156.49,90.72,167.83,415.04,Single-ply,SBD,M
Boys,82.1,15,Ronique Williams,Copperas Cove,77.75,154.22,95.25,158.76,408.23,Single-ply,SBD,M
Boys,82.1,16,Chris Whitehead,Waco,76.84,138.35,95.25,158.76,392.36,Single-ply,SBD,M
Boys,82.1,DQ,Nick Robinson,Waco Midway,79.47,185.97,104.33,188.24,,Single-ply,SBD,M
Boys,89.81,1,Korey Chatman,Waco Midway,84.28,249.48,151.95,242.67,644.1,Single-ply,SBD,M
Boys,89.81,2,Michael Hicks,Temple,85.46,226.8,136.08,265.35,628.23,Single-ply,SBD,M
Boys,89.81,3,Aj Head,Waco Midway,88.9,215.46,136.08,215.46,566.99,Single-ply,SBD,M
Boys,89.81,4,Ryan Johnson #16,Belton,87.18,185.97,122.47,217.72,526.17,Single-ply,SBD,M
Boys,89.81,5,Marques Hatcher,Temple,84.82,204.12,102.06,210.92,517.1,Single-ply,SBD,M
Boys,89.81,6,Ken Montufar,Killeen Shoemaker,89.27,158.76,92.99,170.1,421.84,Single-ply,SBD,M
Boys,89.81,7,John Fuselier,Copperas Cove,88.54,147.42,90.72,172.37,410.5,Single-ply,SBD,M
Boys,99.79,1,Xavier Bryant,Temple,99.43,272.16,179.17,274.42,725.75,Single-ply,SBD,M
Boys,99.79,2,Roderick Harris,Waco,99.61,242.67,140.61,215.46,598.74,Single-ply,SBD,M
Boys,99.79,3,OC Beasley,Waco,99.25,208.65,136.08,229.06,573.79,Single-ply,SBD,M
Boys,99.79,4,Kolby Willams,Belton,96.62,204.12,113.4,190.51,508.02,Single-ply,SBD,M
Boys,99.79,5,Cody Haney,Belton,98.16,190.51,117.93,176.9,485.34,Single-ply,SBD,M
Boys,109.77,1,Jaylen Waters,Copperas Cove,105.69,249.48,149.69,242.67,641.83,Single-ply,SBD,M
Boys,124.74,2,David Lopez,Temple,110,263.08,151.95,226.8,641.83,Single-ply,SBD,M
Boys,109.77,3,Jon Ladner,Waco Midway,102.24,244.94,151.95,238.14,635.03,Single-ply,SBD,M
Boys,109.77,4,Derrick Moore,Waco,109.41,240.4,142.88,231.33,614.62,Single-ply,SBD,M
Boys,109.77,5,Travis Lock,Temple,107.41,226.8,142.88,235.87,605.55,Single-ply,SBD,M
Boys,109.77,6,Shakana Herrera,Copperas Cove,109.41,199.58,151.95,226.8,578.33,Single-ply,SBD,M
Boys,109.77,7,Jacob Trevino,Moody,100.88,235.87,145.15,190.51,571.53,Single-ply,SBD,M
Boys,109.77,8,Kentrell Chandler,Temple,103.6,208.65,133.81,217.72,560.19,Single-ply,SBD,M
Boys,109.77,9,William Brummett,Holland,105.23,219.99,145.15,192.78,557.92,Single-ply,SBD,M
Boys,109.77,10,Gilberto Hernandez,Temple,103.33,183.7,145.15,210.92,539.77,Single-ply,SBD,M
Boys,124.74,11,Isaiah Jackson,Copperas Cove,109.86,192.78,113.4,213.19,519.36,Single-ply,SBD,M
Boys,109.77,12,Sergio Hernandez,Temple,105.87,197.31,131.54,181.44,510.29,Single-ply,SBD,M
Boys,109.77,13,Tolley James,Killeen Shoemaker,109.04,142.88,97.52,224.53,464.93,Single-ply,SBD,M
Boys,109.77,14,Colton Parker,Belton,108.05,172.37,120.2,170.1,462.66,Single-ply,SBD,M
Boys,109.77,15,Drew Hughlett,Waco Midway,103.6,170.1,99.79,181.44,451.32,Single-ply,SBD,M
Boys,124.74,1,Mj Morris,Waco Midway,123.65,290.3,165.56,235.87,691.73,Single-ply,SBD,M
Boys,124.74+,2,Camryn Dotson,Waco Midway,124.83,254.01,163.29,272.16,689.46,Single-ply,SBD,M
Boys,124.74,3,James Judie,Temple,119.75,260.82,145.15,265.35,671.32,Single-ply,SBD,M
Boys,124.74,4,Tanner Morgan,Temple,120.11,272.16,147.42,242.67,662.24,Single-ply,SBD,M
Boys,124.74,5,Braden Martinez,Belton,119.02,265.35,120.2,233.6,619.15,Single-ply,SBD,M
Boys,124.74,6,Jessie Eddison,Killeen Shoemaker,120.56,249.48,142.88,197.31,589.67,Single-ply,SBD,M
Boys,124.74,7,Jose Lopez,Temple,121.02,226.8,151.95,204.12,582.87,Single-ply,SBD,M
Boys,124.74,8,Drew Thigpen,Belton,120.56,249.48,129.27,188.24,566.99,Single-ply,SBD,M
Boys,124.74,9,Phillip Lynch,Temple,120.02,226.8,124.74,204.12,555.65,Single-ply,SBD,M
Boys,124.74,10,Justin Melton,Temple,122.02,206.38,129.27,215.46,551.11,Single-ply,SBD,M
Boys,124.74,11,David Castillo,Copperas Cove,111.31,204.12,131.54,204.12,539.77,Single-ply,SBD,M
Boys,124.74,12,Lupe Santos,Holland,122.74,210.92,142.88,181.44,535.24,Single-ply,SBD,M
Boys,124.74,13,Trevion Freeman,Waco,121.38,204.12,122.47,181.44,508.02,Single-ply,SBD,M
Boys,124.74,14,Jonathan Esqueda,Waco,113.49,192.78,102.06,181.44,476.27,Single-ply,SBD,M
Boys,124.74,15,Derrick Poppe,Killeen Shoemaker,116.48,149.69,117.93,149.69,417.3,Single-ply,SBD,M
Boys,124.74,DQ,Phil Aumua,Copperas Cove,116.39,272.16,138.35,,,Single-ply,SBD,M
Boys,124.74+,1,Devontae Moore,Temple,150.77,340.19,229.06,249.48,818.73,Single-ply,SBD,M
Boys,124.74+,2,Lorenzo Walker,Holland,154.86,299.37,183.7,249.48,732.55,Single-ply,SBD,M
Boys,124.74+,3,Justin Murphy,Belton,126.55,226.8,151.95,260.82,639.57,Single-ply,SBD,M
Boys,124.74+,4,Kendell Jones,Killeen Shoemaker,138.62,240.4,151.95,244.94,637.3,Single-ply,SBD,M
Boys,124.74+,5,Dalton Hays,Waco Midway,139.34,267.62,149.69,183.7,601.01,Single-ply,SBD,M
Boys,124.74+,6,Rodarious Birks,Belton,125.28,267.62,131.54,199.58,598.74,Single-ply,SBD,M
Boys,124.74+,7,Jermaine Townsend,Temple,133.99,204.12,115.67,208.65,528.44,Single-ply,SBD,M
Boys,124.74+,8,Matthew Guliart,Killeen Shoemaker,126.1,226.8,122.47,174.63,523.9,Single-ply,SBD,M
Boys,124.74+,9,Joseph Gonzalez,Waco,127.55,204.12,113.4,199.58,517.1,Single-ply,SBD,M
