Division,WeightClassKg,Place,Name,Team,BodyweightKg,Best3SquatKg,Best3BenchKg,Best3DeadliftKg,TotalKg,Equipment,Event,Sex,BirthDate
Boys,51.71,1,Miguel Olivares,Nocona,51.66,95.25,72.57,138.35,306.17,Single-ply,SBD,M,
Boys,51.71,2,Trenton Cottrell,Paradise,51.71,106.59,61.23,115.67,283.5,Single-ply,SBD,M,
Boys,51.71,3,Brayden Annis,Ponder,48.26,83.91,45.36,88.45,217.72,Single-ply,SBD,M,
Boys,55.79,1,Wyatt Abbott,Alvord,52.03,113.4,63.5,127.01,303.91,Single-ply,SBD,M,
Boys,59.87,1,Roman Rivas,Bowie,59.74,172.37,102.06,176.9,451.32,Single-ply,SBD,M,
Boys,59.87,2,Dorian Ellis,Nocona,56.06,127.01,72.57,163.29,362.87,Single-ply,SBD,M,
Boys,59.87,3,Dalton Medlock,Boyd,56.7,140.61,72.57,147.42,360.61,Single-ply,SBD,M,
Boys,59.87,4,Mason Hodges,Ponder,59.78,140.61,81.65,133.81,356.07,Single-ply,SBD,M,
Boys,59.87,5,Arturo Garcia,Nocona,59.19,122.47,79.38,147.42,349.27,Single-ply,SBD,M,
Boys,59.87,6,Colton Covington,Bowie,57.56,122.47,81.65,136.08,340.19,Single-ply,SBD,M,
Boys,59.87,7,Lane Medlock,Boyd,58.83,117.93,65.77,127.01,310.71,Single-ply,SBD,M,
Boys,67.13,1,Ethan Meyers,Bowie,64.59,199.58,120.2,197.31,517.1,Single-ply,SBD,M,
Boys,67.13,2,Joshua Martinez,Bowie,65.73,165.56,83.91,181.44,430.91,Single-ply,SBD,M,
Boys,67.13,3,Jared Morris,Paradise,60.37,181.44,92.99,151.95,426.38,Single-ply,SBD,M,
Boys,67.13,4,Devin Melton,Bowie,66.81,156.49,83.91,172.37,412.77,Single-ply,SBD,M,
Boys,67.13,5,Arturo Parra,Chico,67.13,133.81,90.72,170.1,394.63,Single-ply,SBD,M,
Boys,67.13,6,Zane Cassidy,Ponder,64.55,140.61,79.38,142.88,362.87,Single-ply,SBD,M,
Boys,67.13,7,Rayce Pennartz,Alvord,66.63,124.74,83.91,147.42,356.07,Single-ply,SBD,M,
Boys,67.13,8,Kaleb Flake,Alvord,64.95,124.74,77.11,147.42,349.27,Single-ply,SBD,M,
Boys,67.13,9,Blake VanCampen,Boyd,65.09,122.47,68.04,124.74,315.25,Single-ply,SBD,M,
Boys,67.13,10,Chase Eustace,Boyd,63.64,97.52,61.23,111.13,269.89,Single-ply,SBD,M,
Boys,67.13,11,Lucas Renner,Chico,63.91,81.65,56.7,120.2,258.55,Single-ply,SBD,M,
Boys,74.84,1,Matt Andresen,Alvord,74.66,199.58,108.86,192.78,501.22,Single-ply,SBD,M,
Boys,74.84,2,Julian Perez,Paradise,71.4,176.9,95.25,190.51,462.66,Single-ply,SBD,M,
Boys,74.84,3,Esteban Ortiz,Bowie,73.89,151.95,111.13,190.51,453.59,Single-ply,SBD,M,
Boys,74.84,4,Willie Salsman,Nocona,70.62,172.37,102.06,174.63,449.06,Single-ply,SBD,M,
Boys,74.84,5,Braxton Hall,Bowie,72.85,147.42,74.84,181.44,403.7,Single-ply,SBD,M,
Boys,74.84,6,Joey Henson,Chico,74.71,111.13,90.72,156.49,358.34,Single-ply,SBD,M,
Boys,74.84,7,Hunter Duke,Bowie,73.03,120.2,68.04,142.88,331.12,Single-ply,SBD,M,
Boys,74.84,8,Drew Epperson,Alvord,71.26,117.93,68.04,131.54,317.51,Single-ply,SBD,M,
Boys,74.84,9,Tyler Hicks,Alvord,69.08,120.2,68.04,124.74,312.98,Single-ply,SBD,M,
Boys,82.1,1,Tommy White,Paradise,78.56,190.51,95.25,199.58,485.34,Single-ply,SBD,M,
Boys,82.1,2,Jesus Castillo,Bowie,80.65,181.44,122.47,179.17,483.08,Single-ply,SBD,M,
Boys,82.1,3,Isaac Ryan,Nocona,79.15,170.1,102.06,199.58,471.74,Single-ply,SBD,M,
Boys,82.1,4,Benjamin Antczak,Ponder,82.1,174.63,111.13,179.17,464.93,Single-ply,SBD,M,
Boys,82.1,5,Michael Nelson,Boyd,78.47,172.37,90.72,174.63,437.72,Single-ply,SBD,M,
Boys,82.1,6,Brian Butler,Alvord,77.7,122.47,90.72,136.08,349.27,Single-ply,SBD,M,
Boys,82.1,DQ,Joe Gonzales,Paradise,79.97,176.9,108.86,,,Single-ply,SBD,M,
Boys,89.81,1,Dillon Inman,Boyd,82.46,249.48,149.69,210.92,610.08,Single-ply,SBD,M,
Boys,89.81,2,Cameron Carroll,Ponder,87.59,195.04,151.95,231.33,578.33,Single-ply,SBD,M,
Boys,89.81,3,Daniel Mora,Alvord,83.05,147.42,86.18,181.44,415.04,Single-ply,SBD,M,
Boys,89.81,4,JR Partney,Nocona,83.51,131.54,97.52,174.63,403.7,Single-ply,SBD,M,
Boys,99.79,1,Jacob Ramos #2,Paradise,93.35,226.8,136.08,222.26,585.13,Single-ply,SBD,M,
Boys,99.79,2,Ezra Fox,Alvord,94.26,208.65,122.47,140.61,471.74,Single-ply,SBD,M,
Boys,109.77,1,Carson Tinney,Paradise,108.68,238.14,138.35,213.19,589.67,Single-ply,SBD,M,
Boys,109.77,2,Nicky Licea,Paradise,102.24,199.58,129.27,181.44,510.29,Single-ply,SBD,M,
Boys,109.77,3,Jonathan Rodriguez,Paradise,109.77,192.78,120.2,163.29,476.27,Single-ply,SBD,M,
Boys,109.77,4,Hunter Wade,Bowie,105.73,167.83,102.06,140.61,410.5,Single-ply,SBD,M,
Boys,109.77,5,Alan Rodriguez,Ponder,105.69,163.29,79.38,163.29,405.97,Single-ply,SBD,M,
Boys,124.74,1,Clayton Godwin,Paradise,121.34,258.55,183.7,249.48,691.73,Single-ply,SBD,M,
Boys,124.74,2,Bartolo Guevara,Boyd,124.69,272.16,163.29,226.8,662.24,Single-ply,SBD,M,
Boys,124.74,3,Carlos Winters,Nocona,112.81,206.38,136.08,204.12,546.58,Single-ply,SBD,M,
Boys,124.74,4,Kaleb Crable,Alvord,117.98,244.94,120.2,179.17,544.31,Single-ply,SBD,M,
Boys,124.74,5,Bryan DeLeon,Ponder,122.06,224.53,129.27,163.29,517.1,Single-ply,SBD,M,
Boys,124.74,6,Coleton Price,Bowie,116.94,192.78,127.01,192.78,512.56,Single-ply,SBD,M,
Boys,124.74,7,Josh Cortez,Ponder,118.98,215.46,102.06,174.63,492.15,Single-ply,SBD,M,
Boys,124.74,8,William Estel,Boyd,118.98,204.12,113.4,172.37,489.88,Single-ply,SBD,M,
Boys,124.74,9,Keylan Chambers,Alvord,111.67,138.35,77.11,142.88,358.34,Single-ply,SBD,M,
Boys,124.74+,1,Brady York,Nocona,140.11,263.08,167.83,249.48,680.39,Single-ply,SBD,M,
Boys,124.74+,2,Tyson Herron,Bowie,158.39,215.46,151.95,215.46,582.87,Single-ply,SBD,M,
Boys,,NS,Jake Lytle,Boyd,,,,,,Single-ply,SBD,M,
Boys,,NS,Hunter Bowen,Boyd,,,,,,Single-ply,SBD,M,
Boys,,NS,Hayden Sands,Alvord,,,,,,Single-ply,SBD,M,
Boys,,NS,Chase Compton,Alvord,,,,,,Single-ply,SBD,M,
Boys,,NS,Carlos Castro,Nocona,,,,,,Single-ply,SBD,M,
Boys,,NS,Wyatt Reeves,Paradise,,,,,,Single-ply,SBD,M,
Boys,,NS,Chase Taylor,Ponder,,,,,,Single-ply,SBD,M,
