Place,Name,Division,Equipment,Event,BirthDate,BirthYear,Sex,BodyweightKg,WeightClassKg,Squat1Kg,Squat2Kg,Squat3Kg,Best3SquatKg,Bench1Kg,Bench2Kg,Bench3Kg,Best3BenchKg,Deadlift1Kg,Deadlift2Kg,Deadlift3Kg,Best3DeadliftKg,TotalKg
1,Sebastien Laugier,Masters 1,Raw,SBD,,1980,M,101.8,105,180,190,197.5,197.5,125,-130,130,130,220,232.5,,232.5,560
1,Charles Franch Guerra,Masters 3,Raw,SBD,,1960,M,81.73,83,100,107.5,112.5,112.5,52.5,55,57.5,57.5,120,127.5,135,135,305
1,Guylhem Feraud,Masters 4,Raw,SBD,,1945,M,72.2,74,90,100,110,110,80,87.5,90,90,140,150,,150,350
G,Mathias Zaoui,Sub-Juniors,Raw,SBD,,2004,M,87.3,93,105,110,115,115,105,110,-112.5,110,150,160,162.5,162.5,387.5
1,Rudy Vanbreusegem,Seniors,Single-ply,SBD,,1985,M,73.5,74,210,220,230,230,-130,130,135,135,215,230,-247.5,230,595
